%YAML 1.1
%TAG !u! tag:unity3d.com,2011:
--- !u!74 &7400000
AnimationClip:
  m_ObjectHideFlags: 0
  m_CorrespondingSourceObject: {fileID: 0}
  m_PrefabInstance: {fileID: 0}
  m_PrefabAsset: {fileID: 0}
  m_Name: Cloud
  serializedVersion: 6
  m_Legacy: 0
  m_Compressed: 0
  m_UseHighQualityCurve: 1
  m_RotationCurves: []
  m_CompressedRotationCurves: []
  m_EulerCurves: []
  m_PositionCurves: []
  m_ScaleCurves: []
  m_FloatCurves: []
  m_PPtrCurves:
  - curve:
    - time: 0
      value: {fileID: 21300000, guid: f81eb95ef308ddc4b92a1e33cba23de3, type: 3}
    - time: 0.041666668
      value: {fileID: 21300000, guid: 81b1b51e4d766104581a2d9b908764e2, type: 3}
    - time: 0.083333336
      value: {fileID: 21300000, guid: 51512bc56833df440a3bbfe3491e4ce7, type: 3}
    - time: 0.125
      value: {fileID: 21300000, guid: 1222e06e8c35f5347b9a3d3fd88543e7, type: 3}
    - time: 0.16666667
      value: {fileID: 21300000, guid: 484e69b778b56cf4bbad7b3970f8e471, type: 3}
    - time: 0.20833333
      value: {fileID: 21300000, guid: 12812917a42481d489c0eaf47804dfca, type: 3}
    - time: 0.25
      value: {fileID: 21300000, guid: 92d321d9919499643821ebf505e8bc88, type: 3}
    - time: 0.29166666
      value: {fileID: 21300000, guid: 3d2db3f2f73623245b29453b0d1e493e, type: 3}
    - time: 0.33333334
      value: {fileID: 21300000, guid: e7cccad05ebe04941837b3d943b7a342, type: 3}
    - time: 0.375
      value: {fileID: 21300000, guid: ae63652d55c22204189a910317983620, type: 3}
    - time: 0.41666666
      value: {fileID: 21300000, guid: cff866127be02ed469b843208951639c, type: 3}
    - time: 0.45833334
      value: {fileID: 21300000, guid: 5a8b050296035f941a710c53399172f3, type: 3}
    - time: 0.5
      value: {fileID: 21300000, guid: f2b761925cfa5f54bbbea6bbc5329f12, type: 3}
    - time: 0.5416667
      value: {fileID: 21300000, guid: 82af660f14fcc774c87d3f5a48d69573, type: 3}
    - time: 0.5833333
      value: {fileID: 21300000, guid: d76ab6c35513bf848996dd8191c736e6, type: 3}
    - time: 0.625
      value: {fileID: 21300000, guid: cd5cc8967f61307438e72ca127b0410c, type: 3}
    - time: 0.6666667
      value: {fileID: 21300000, guid: d6f09fd2286de944ca083550491e1b5b, type: 3}
    - time: 0.7083333
      value: {fileID: 21300000, guid: f7a6590779d00b94ab7dfa2a78b95b89, type: 3}
    - time: 0.75
      value: {fileID: 21300000, guid: e4fb01de964e6d943a3e01c71f3bb4d3, type: 3}
    - time: 0.7916667
      value: {fileID: 21300000, guid: 106832c026d1c3e489b49722b1af1ee3, type: 3}
    - time: 0.8333333
      value: {fileID: 21300000, guid: b24e81c5fcd73554581e861aab22d9bc, type: 3}
    - time: 0.875
      value: {fileID: 21300000, guid: d932d31256888b04c8cbcf3a42f1df57, type: 3}
    - time: 0.9166667
      value: {fileID: 21300000, guid: d57ffecf3e3dfe3409d60378d38aa0fd, type: 3}
    attribute: m_Sprite
    path: 
    classID: 114
    script: {fileID: -765806418, guid: f70555f144d8491a825f0804e09c671c, type: 3}
  m_SampleRate: 24
  m_WrapMode: 0
  m_Bounds:
    m_Center: {x: 0, y: 0, z: 0}
    m_Extent: {x: 0, y: 0, z: 0}
  m_ClipBindingConstant:
    genericBindings:
    - serializedVersion: 2
      path: 0
      attribute: 2015549526
      script: {fileID: -765806418, guid: f70555f144d8491a825f0804e09c671c, type: 3}
      typeID: 114
      customType: 0
      isPPtrCurve: 1
    pptrCurveMapping:
    - {fileID: 21300000, guid: f81eb95ef308ddc4b92a1e33cba23de3, type: 3}
    - {fileID: 21300000, guid: 81b1b51e4d766104581a2d9b908764e2, type: 3}
    - {fileID: 21300000, guid: 51512bc56833df440a3bbfe3491e4ce7, type: 3}
    - {fileID: 21300000, guid: 1222e06e8c35f5347b9a3d3fd88543e7, type: 3}
    - {fileID: 21300000, guid: 484e69b778b56cf4bbad7b3970f8e471, type: 3}
    - {fileID: 21300000, guid: 12812917a42481d489c0eaf47804dfca, type: 3}
    - {fileID: 21300000, guid: 92d321d9919499643821ebf505e8bc88, type: 3}
    - {fileID: 21300000, guid: 3d2db3f2f73623245b29453b0d1e493e, type: 3}
    - {fileID: 21300000, guid: e7cccad05ebe04941837b3d943b7a342, type: 3}
    - {fileID: 21300000, guid: ae63652d55c22204189a910317983620, type: 3}
    - {fileID: 21300000, guid: cff866127be02ed469b843208951639c, type: 3}
    - {fileID: 21300000, guid: 5a8b050296035f941a710c53399172f3, type: 3}
    - {fileID: 21300000, guid: f2b761925cfa5f54bbbea6bbc5329f12, type: 3}
    - {fileID: 21300000, guid: 82af660f14fcc774c87d3f5a48d69573, type: 3}
    - {fileID: 21300000, guid: d76ab6c35513bf848996dd8191c736e6, type: 3}
    - {fileID: 21300000, guid: cd5cc8967f61307438e72ca127b0410c, type: 3}
    - {fileID: 21300000, guid: d6f09fd2286de944ca083550491e1b5b, type: 3}
    - {fileID: 21300000, guid: f7a6590779d00b94ab7dfa2a78b95b89, type: 3}
    - {fileID: 21300000, guid: e4fb01de964e6d943a3e01c71f3bb4d3, type: 3}
    - {fileID: 21300000, guid: 106832c026d1c3e489b49722b1af1ee3, type: 3}
    - {fileID: 21300000, guid: b24e81c5fcd73554581e861aab22d9bc, type: 3}
    - {fileID: 21300000, guid: d932d31256888b04c8cbcf3a42f1df57, type: 3}
    - {fileID: 21300000, guid: d57ffecf3e3dfe3409d60378d38aa0fd, type: 3}
  m_AnimationClipSettings:
    serializedVersion: 2
    m_AdditiveReferencePoseClip: {fileID: 0}
    m_AdditiveReferencePoseTime: 0
    m_StartTime: 0
    m_StopTime: 0.9583334
    m_OrientationOffsetY: 0
    m_Level: 0
    m_CycleOffset: 0
    m_HasAdditiveReferencePose: 0
    m_LoopTime: 0
    m_LoopBlend: 0
    m_LoopBlendOrientation: 0
    m_LoopBlendPositionY: 0
    m_LoopBlendPositionXZ: 0
    m_KeepOriginalOrientation: 0
    m_KeepOriginalPositionY: 1
    m_KeepOriginalPositionXZ: 0
    m_HeightFromFeet: 0
    m_Mirror: 0
  m_EditorCurves: []
  m_EulerEditorCurves: []
  m_HasGenericRootTransform: 0
  m_HasMotionFloatCurves: 0
  m_Events: []
