%YAML 1.1
%TAG !u! tag:unity3d.com,2011:
--- !u!74 &7400000
AnimationClip:
  m_ObjectHideFlags: 0
  m_CorrespondingSourceObject: {fileID: 0}
  m_PrefabInstance: {fileID: 0}
  m_PrefabAsset: {fileID: 0}
  m_Name: NewWave
  serializedVersion: 6
  m_Legacy: 0
  m_Compressed: 0
  m_UseHighQualityCurve: 1
  m_RotationCurves: []
  m_CompressedRotationCurves: []
  m_EulerCurves: []
  m_PositionCurves: []
  m_ScaleCurves: []
  m_FloatCurves:
  - curve:
      serializedVersion: 2
      m_Curve:
      - serializedVersion: 3
        time: 0
        value: 0
        inSlope: 0
        outSlope: 0
        tangentMode: 136
        weightedMode: 0
        inWeight: 0.33333334
        outWeight: 0.33333334
      - serializedVersion: 3
        time: 0.8333333
        value: 0
        inSlope: 0
        outSlope: 0
        tangentMode: 136
        weightedMode: 0
        inWeight: 0.33333334
        outWeight: 0.33333334
      - serializedVersion: 3
        time: 1.2916666
        value: 1
        inSlope: 0
        outSlope: 0
        tangentMode: 136
        weightedMode: 0
        inWeight: 0.33333334
        outWeight: 0.33333334
      - serializedVersion: 3
        time: 2.0416667
        value: 1
        inSlope: 0
        outSlope: 0
        tangentMode: 136
        weightedMode: 0
        inWeight: 0.33333334
        outWeight: 0.33333334
      - serializedVersion: 3
        time: 2.6666667
        value: 0
        inSlope: 0
        outSlope: 0
        tangentMode: 136
        weightedMode: 0
        inWeight: 0.33333334
        outWeight: 0.33333334
      m_PreInfinity: 2
      m_PostInfinity: 2
      m_RotationOrder: 4
    attribute: m_Color.a
    path: LevelTitle
    classID: 114
    script: {fileID: 708705254, guid: f70555f144d8491a825f0804e09c671c, type: 3}
  - curve:
      serializedVersion: 2
      m_Curve:
      - serializedVersion: 3
        time: 0
        value: 1
        inSlope: 0
        outSlope: 0
        tangentMode: 136
        weightedMode: 0
        inWeight: 0.33333334
        outWeight: 0.33333334
      - serializedVersion: 3
        time: 2.0416667
        value: 1
        inSlope: 0
        outSlope: 0
        tangentMode: 136
        weightedMode: 0
        inWeight: 0.33333334
        outWeight: 0.33333334
      - serializedVersion: 3
        time: 2.6666667
        value: 0
        inSlope: 0
        outSlope: 0
        tangentMode: 136
        weightedMode: 0
        inWeight: 0.33333334
        outWeight: 0.33333334
      m_PreInfinity: 2
      m_PostInfinity: 2
      m_RotationOrder: 4
    attribute: m_Color.a
    path: 
    classID: 114
    script: {fileID: -765806418, guid: f70555f144d8491a825f0804e09c671c, type: 3}
  m_PPtrCurves:
  - curve:
    - time: 0
      value: {fileID: 21300000, guid: 818efe2b1a1271c45b4a04840423d326, type: 3}
    - time: 0.041666668
      value: {fileID: 21300000, guid: 20fc3597a8ff56745b93276301710154, type: 3}
    - time: 0.083333336
      value: {fileID: 21300000, guid: acf71d7ee871ea54eb2d1fb75663f3c1, type: 3}
    - time: 0.125
      value: {fileID: 21300000, guid: 4fc4bd2780497c443af5ab77cfca0366, type: 3}
    - time: 0.16666667
      value: {fileID: 21300000, guid: 277f6ec98fe6ad74495a292252a7a0c5, type: 3}
    - time: 0.20833333
      value: {fileID: 21300000, guid: 66fcccf6829a5534a8a16895b136d790, type: 3}
    - time: 0.25
      value: {fileID: 21300000, guid: fb7cda64b2ce820499c369a714335e27, type: 3}
    - time: 0.29166666
      value: {fileID: 21300000, guid: d5716be393cb7d4468f8e6d2687758b2, type: 3}
    - time: 0.33333334
      value: {fileID: 21300000, guid: 32d103efdc71f6743b75ee9f2dba3bda, type: 3}
    - time: 0.375
      value: {fileID: 21300000, guid: e3617629ea3130a4aa1f80c6d62e03b5, type: 3}
    - time: 0.41666666
      value: {fileID: 21300000, guid: 44e23a9a5b7059f459bb555ee22edd1e, type: 3}
    - time: 0.45833334
      value: {fileID: 21300000, guid: e3d585e4b5b101a46b1feae144c9f15e, type: 3}
    - time: 0.5
      value: {fileID: 21300000, guid: 969399f745da65a48a8ac89c3ed32c97, type: 3}
    - time: 0.5416667
      value: {fileID: 21300000, guid: 3f5d2b8a9539ec448a2927a1d37b1a6d, type: 3}
    - time: 0.5833333
      value: {fileID: 21300000, guid: 27074111aa239a343b609e441d123e73, type: 3}
    - time: 0.625
      value: {fileID: 21300000, guid: 1c0ce785c6186ab44a3a1dafea61234e, type: 3}
    - time: 0.6666667
      value: {fileID: 21300000, guid: b95ee6229aec5784a9198a58198de45c, type: 3}
    - time: 0.7083333
      value: {fileID: 21300000, guid: 9dd4a97669693914d9f63a5bc9c1a7b7, type: 3}
    - time: 0.75
      value: {fileID: 21300000, guid: 7cede62790db9fe4cbf3ef9b16704963, type: 3}
    - time: 0.7916667
      value: {fileID: 21300000, guid: 15e44df9baa4ca24e9a8c2ab5b1f3ba5, type: 3}
    - time: 0.8333333
      value: {fileID: 21300000, guid: 55f0f0cf81c6bce49954548dc82e59da, type: 3}
    - time: 0.875
      value: {fileID: 21300000, guid: 65cd38b684ffbec45bf460e1c9507208, type: 3}
    - time: 0.9166667
      value: {fileID: 21300000, guid: 5fce6288e224ac142ba40418b1353bcf, type: 3}
    - time: 0.9583333
      value: {fileID: 21300000, guid: ce5f668f622ad6940b7caf3bf02c45c8, type: 3}
    - time: 1
      value: {fileID: 21300000, guid: a983b44e44e4eeb409308c68e2b6717e, type: 3}
    - time: 1.0416666
      value: {fileID: 21300000, guid: 679ec6d1e8a55a749974d056cd9e8d13, type: 3}
    - time: 1.0833334
      value: {fileID: 21300000, guid: bb40c859e78f2964db78ee8785769456, type: 3}
    - time: 1.125
      value: {fileID: 21300000, guid: 22af9424546c84540904c560f20a9fe3, type: 3}
    - time: 1.1666666
      value: {fileID: 21300000, guid: 24e9e7de83d37cc4a82397c546ef67ed, type: 3}
    - time: 1.2083334
      value: {fileID: 21300000, guid: 93e2e2dd3e1ed9e43b65e8df8338a41e, type: 3}
    - time: 1.25
      value: {fileID: 21300000, guid: ab41c33689281904490227cf7ae5772f, type: 3}
    - time: 1.2916666
      value: {fileID: 21300000, guid: ee58ec4d31ce7ed4a8dc32924e60d149, type: 3}
    - time: 1.3333334
      value: {fileID: 21300000, guid: 68f0839a290439e4fa68830331d6f143, type: 3}
    - time: 1.375
      value: {fileID: 21300000, guid: 3cae44c50376c284ca9da158d0a79c0e, type: 3}
    - time: 1.4166666
      value: {fileID: 21300000, guid: 685974ccf44087b459640f5ddb459173, type: 3}
    - time: 1.4583334
      value: {fileID: 21300000, guid: 41437e32de114054ea0585953d58dec4, type: 3}
    - time: 1.5
      value: {fileID: 21300000, guid: 6ee1059025b56644c840fbbe896ca283, type: 3}
    - time: 1.5416666
      value: {fileID: 21300000, guid: 26145fe5ae383094c9b22311325d73cf, type: 3}
    - time: 1.5833334
      value: {fileID: 21300000, guid: cb403c4a509ec72409971c126fa4e0e0, type: 3}
    - time: 1.625
      value: {fileID: 21300000, guid: 513a4624ff058ca49a8a9f5ba9e59e3a, type: 3}
    - time: 1.6666666
      value: {fileID: 21300000, guid: 6d3222abfba2c374db62ada22d73897d, type: 3}
    - time: 1.7083334
      value: {fileID: 21300000, guid: 5f696189d81275c4491f123ef1739037, type: 3}
    - time: 1.75
      value: {fileID: 21300000, guid: 95f501133f9ea984782dc076241b6610, type: 3}
    - time: 1.7916666
      value: {fileID: 21300000, guid: d1428b6dd3865ad41ba4398372d8d4ec, type: 3}
    - time: 1.8333334
      value: {fileID: 21300000, guid: ba41f6284f8f5bd489cd910c4a95f238, type: 3}
    - time: 1.875
      value: {fileID: 21300000, guid: e498a9e16a67b3e47864aa2ecb1cb2ef, type: 3}
    - time: 1.9166666
      value: {fileID: 21300000, guid: dbed2ef5e4e2fc34eac1cf121b559f74, type: 3}
    - time: 1.9583334
      value: {fileID: 21300000, guid: 9bd665e3aee077c42b80c71678967e81, type: 3}
    - time: 2
      value: {fileID: 21300000, guid: 5d56018d8d449ce4f91cbccdbb7f684d, type: 3}
    - time: 2.0416667
      value: {fileID: 21300000, guid: 792f122d824cfee4b949295a83093d47, type: 3}
    attribute: m_Sprite
    path: 
    classID: 114
    script: {fileID: -765806418, guid: f70555f144d8491a825f0804e09c671c, type: 3}
  m_SampleRate: 24
  m_WrapMode: 0
  m_Bounds:
    m_Center: {x: 0, y: 0, z: 0}
    m_Extent: {x: 0, y: 0, z: 0}
  m_ClipBindingConstant:
    genericBindings:
    - serializedVersion: 2
      path: 2443894709
      attribute: 304273561
      script: {fileID: 708705254, guid: f70555f144d8491a825f0804e09c671c, type: 3}
      typeID: 114
      customType: 0
      isPPtrCurve: 0
    - serializedVersion: 2
      path: 0
      attribute: 304273561
      script: {fileID: -765806418, guid: f70555f144d8491a825f0804e09c671c, type: 3}
      typeID: 114
      customType: 0
      isPPtrCurve: 0
    - serializedVersion: 2
      path: 0
      attribute: 2015549526
      script: {fileID: -765806418, guid: f70555f144d8491a825f0804e09c671c, type: 3}
      typeID: 114
      customType: 0
      isPPtrCurve: 1
    pptrCurveMapping:
    - {fileID: 21300000, guid: 818efe2b1a1271c45b4a04840423d326, type: 3}
    - {fileID: 21300000, guid: 20fc3597a8ff56745b93276301710154, type: 3}
    - {fileID: 21300000, guid: acf71d7ee871ea54eb2d1fb75663f3c1, type: 3}
    - {fileID: 21300000, guid: 4fc4bd2780497c443af5ab77cfca0366, type: 3}
    - {fileID: 21300000, guid: 277f6ec98fe6ad74495a292252a7a0c5, type: 3}
    - {fileID: 21300000, guid: 66fcccf6829a5534a8a16895b136d790, type: 3}
    - {fileID: 21300000, guid: fb7cda64b2ce820499c369a714335e27, type: 3}
    - {fileID: 21300000, guid: d5716be393cb7d4468f8e6d2687758b2, type: 3}
    - {fileID: 21300000, guid: 32d103efdc71f6743b75ee9f2dba3bda, type: 3}
    - {fileID: 21300000, guid: e3617629ea3130a4aa1f80c6d62e03b5, type: 3}
    - {fileID: 21300000, guid: 44e23a9a5b7059f459bb555ee22edd1e, type: 3}
    - {fileID: 21300000, guid: e3d585e4b5b101a46b1feae144c9f15e, type: 3}
    - {fileID: 21300000, guid: 969399f745da65a48a8ac89c3ed32c97, type: 3}
    - {fileID: 21300000, guid: 3f5d2b8a9539ec448a2927a1d37b1a6d, type: 3}
    - {fileID: 21300000, guid: 27074111aa239a343b609e441d123e73, type: 3}
    - {fileID: 21300000, guid: 1c0ce785c6186ab44a3a1dafea61234e, type: 3}
    - {fileID: 21300000, guid: b95ee6229aec5784a9198a58198de45c, type: 3}
    - {fileID: 21300000, guid: 9dd4a97669693914d9f63a5bc9c1a7b7, type: 3}
    - {fileID: 21300000, guid: 7cede62790db9fe4cbf3ef9b16704963, type: 3}
    - {fileID: 21300000, guid: 15e44df9baa4ca24e9a8c2ab5b1f3ba5, type: 3}
    - {fileID: 21300000, guid: 55f0f0cf81c6bce49954548dc82e59da, type: 3}
    - {fileID: 21300000, guid: 65cd38b684ffbec45bf460e1c9507208, type: 3}
    - {fileID: 21300000, guid: 5fce6288e224ac142ba40418b1353bcf, type: 3}
    - {fileID: 21300000, guid: ce5f668f622ad6940b7caf3bf02c45c8, type: 3}
    - {fileID: 21300000, guid: a983b44e44e4eeb409308c68e2b6717e, type: 3}
    - {fileID: 21300000, guid: 679ec6d1e8a55a749974d056cd9e8d13, type: 3}
    - {fileID: 21300000, guid: bb40c859e78f2964db78ee8785769456, type: 3}
    - {fileID: 21300000, guid: 22af9424546c84540904c560f20a9fe3, type: 3}
    - {fileID: 21300000, guid: 24e9e7de83d37cc4a82397c546ef67ed, type: 3}
    - {fileID: 21300000, guid: 93e2e2dd3e1ed9e43b65e8df8338a41e, type: 3}
    - {fileID: 21300000, guid: ab41c33689281904490227cf7ae5772f, type: 3}
    - {fileID: 21300000, guid: ee58ec4d31ce7ed4a8dc32924e60d149, type: 3}
    - {fileID: 21300000, guid: 68f0839a290439e4fa68830331d6f143, type: 3}
    - {fileID: 21300000, guid: 3cae44c50376c284ca9da158d0a79c0e, type: 3}
    - {fileID: 21300000, guid: 685974ccf44087b459640f5ddb459173, type: 3}
    - {fileID: 21300000, guid: 41437e32de114054ea0585953d58dec4, type: 3}
    - {fileID: 21300000, guid: 6ee1059025b56644c840fbbe896ca283, type: 3}
    - {fileID: 21300000, guid: 26145fe5ae383094c9b22311325d73cf, type: 3}
    - {fileID: 21300000, guid: cb403c4a509ec72409971c126fa4e0e0, type: 3}
    - {fileID: 21300000, guid: 513a4624ff058ca49a8a9f5ba9e59e3a, type: 3}
    - {fileID: 21300000, guid: 6d3222abfba2c374db62ada22d73897d, type: 3}
    - {fileID: 21300000, guid: 5f696189d81275c4491f123ef1739037, type: 3}
    - {fileID: 21300000, guid: 95f501133f9ea984782dc076241b6610, type: 3}
    - {fileID: 21300000, guid: d1428b6dd3865ad41ba4398372d8d4ec, type: 3}
    - {fileID: 21300000, guid: ba41f6284f8f5bd489cd910c4a95f238, type: 3}
    - {fileID: 21300000, guid: e498a9e16a67b3e47864aa2ecb1cb2ef, type: 3}
    - {fileID: 21300000, guid: dbed2ef5e4e2fc34eac1cf121b559f74, type: 3}
    - {fileID: 21300000, guid: 9bd665e3aee077c42b80c71678967e81, type: 3}
    - {fileID: 21300000, guid: 5d56018d8d449ce4f91cbccdbb7f684d, type: 3}
    - {fileID: 21300000, guid: 792f122d824cfee4b949295a83093d47, type: 3}
  m_AnimationClipSettings:
    serializedVersion: 2
    m_AdditiveReferencePoseClip: {fileID: 0}
    m_AdditiveReferencePoseTime: 0
    m_StartTime: 0
    m_StopTime: 2.6666667
    m_OrientationOffsetY: 0
    m_Level: 0
    m_CycleOffset: 0
    m_HasAdditiveReferencePose: 0
    m_LoopTime: 0
    m_LoopBlend: 0
    m_LoopBlendOrientation: 0
    m_LoopBlendPositionY: 0
    m_LoopBlendPositionXZ: 0
    m_KeepOriginalOrientation: 0
    m_KeepOriginalPositionY: 1
    m_KeepOriginalPositionXZ: 0
    m_HeightFromFeet: 0
    m_Mirror: 0
  m_EditorCurves:
  - curve:
      serializedVersion: 2
      m_Curve:
      - serializedVersion: 3
        time: 0
        value: 0
        inSlope: 0
        outSlope: 0
        tangentMode: 136
        weightedMode: 0
        inWeight: 0.33333334
        outWeight: 0.33333334
      - serializedVersion: 3
        time: 0.8333333
        value: 0
        inSlope: 0
        outSlope: 0
        tangentMode: 136
        weightedMode: 0
        inWeight: 0.33333334
        outWeight: 0.33333334
      - serializedVersion: 3
        time: 1.2916666
        value: 1
        inSlope: 0
        outSlope: 0
        tangentMode: 136
        weightedMode: 0
        inWeight: 0.33333334
        outWeight: 0.33333334
      - serializedVersion: 3
        time: 2.0416667
        value: 1
        inSlope: 0
        outSlope: 0
        tangentMode: 136
        weightedMode: 0
        inWeight: 0.33333334
        outWeight: 0.33333334
      - serializedVersion: 3
        time: 2.6666667
        value: 0
        inSlope: 0
        outSlope: 0
        tangentMode: 136
        weightedMode: 0
        inWeight: 0.33333334
        outWeight: 0.33333334
      m_PreInfinity: 2
      m_PostInfinity: 2
      m_RotationOrder: 4
    attribute: m_Color.a
    path: LevelTitle
    classID: 114
    script: {fileID: 708705254, guid: f70555f144d8491a825f0804e09c671c, type: 3}
  - curve:
      serializedVersion: 2
      m_Curve:
      - serializedVersion: 3
        time: 0
        value: 1
        inSlope: 0
        outSlope: 0
        tangentMode: 136
        weightedMode: 0
        inWeight: 0.33333334
        outWeight: 0.33333334
      - serializedVersion: 3
        time: 2.0416667
        value: 1
        inSlope: 0
        outSlope: 0
        tangentMode: 136
        weightedMode: 0
        inWeight: 0.33333334
        outWeight: 0.33333334
      - serializedVersion: 3
        time: 2.6666667
        value: 0
        inSlope: 0
        outSlope: 0
        tangentMode: 136
        weightedMode: 0
        inWeight: 0.33333334
        outWeight: 0.33333334
      m_PreInfinity: 2
      m_PostInfinity: 2
      m_RotationOrder: 4
    attribute: m_Color.a
    path: 
    classID: 114
    script: {fileID: -765806418, guid: f70555f144d8491a825f0804e09c671c, type: 3}
  m_EulerEditorCurves: []
  m_HasGenericRootTransform: 0
  m_HasMotionFloatCurves: 0
  m_Events: []
