%YAML 1.1
%TAG !u! tag:unity3d.com,2011:
--- !u!74 &7400000
AnimationClip:
  m_ObjectHideFlags: 0
  m_CorrespondingSourceObject: {fileID: 0}
  m_PrefabInstance: {fileID: 0}
  m_PrefabAsset: {fileID: 0}
  m_Name: Barrel
  serializedVersion: 6
  m_Legacy: 0
  m_Compressed: 0
  m_UseHighQualityCurve: 1
  m_RotationCurves: []
  m_CompressedRotationCurves: []
  m_EulerCurves: []
  m_PositionCurves: []
  m_ScaleCurves: []
  m_FloatCurves: []
  m_PPtrCurves:
  - curve:
    - time: 0
      value: {fileID: 21300000, guid: b3dc3325d3a75e141a319a7e6218f1f3, type: 3}
    - time: 0.041666668
      value: {fileID: 21300000, guid: af4a0c831afcaf645962b189df57c0d3, type: 3}
    - time: 0.083333336
      value: {fileID: 21300000, guid: 3447c577750c5984cb44e06621270131, type: 3}
    - time: 0.125
      value: {fileID: 21300000, guid: a47ba8857cc12f84c9e0204598920367, type: 3}
    - time: 0.16666667
      value: {fileID: 21300000, guid: a34fcaf4c73c83b46bca3ce159937e89, type: 3}
    - time: 0.20833333
      value: {fileID: 21300000, guid: c62b870a6f34a3d419ae8e91ddbde210, type: 3}
    - time: 0.25
      value: {fileID: 21300000, guid: de9ae7f3d17ef7347b882eb10d9f93cf, type: 3}
    - time: 0.29166666
      value: {fileID: 21300000, guid: b5a3d95d0aec7884f91f60dde8bc035b, type: 3}
    - time: 0.33333334
      value: {fileID: 21300000, guid: c5662a9741d01984691227747b3d2ce8, type: 3}
    - time: 0.375
      value: {fileID: 21300000, guid: 596baab7133faaf4696f6a84df8a6609, type: 3}
    - time: 0.41666666
      value: {fileID: 21300000, guid: 8af8ce77299adb341acdbdb825fffce1, type: 3}
    - time: 0.45833334
      value: {fileID: 21300000, guid: 42096cdb25a096f4f9367bde124094a0, type: 3}
    - time: 0.5
      value: {fileID: 21300000, guid: a5e08ae487202214e9bc3d16cc2564ca, type: 3}
    - time: 0.5416667
      value: {fileID: 21300000, guid: 1773def54b88d4c4482f61e7460f3902, type: 3}
    - time: 0.5833333
      value: {fileID: 21300000, guid: 236f0c77e73e91444a3e7568faa2ea87, type: 3}
    - time: 0.625
      value: {fileID: 21300000, guid: 357cde2a1d9866648833ecddd03b2953, type: 3}
    - time: 0.6666667
      value: {fileID: 21300000, guid: 4ea13d231472d1a45a5794da624cf299, type: 3}
    - time: 0.7083333
      value: {fileID: 21300000, guid: 67ee7a6f15986f6469840eff634b1f6b, type: 3}
    - time: 0.75
      value: {fileID: 21300000, guid: adaa40b293a34dc4ba2b4dfbcae71720, type: 3}
    - time: 0.7916667
      value: {fileID: 21300000, guid: 959d49e17f233ce43bd5faa7d3fa9a92, type: 3}
    - time: 0.8333333
      value: {fileID: 21300000, guid: 65fadf4b946eb6f4cbbda974df40e5d5, type: 3}
    - time: 0.875
      value: {fileID: 21300000, guid: 1946f21579f323b4eb6aaa01f676ca96, type: 3}
    - time: 0.9166667
      value: {fileID: 21300000, guid: 7e71b9531cd1b1e45b0fa06120f6dbdf, type: 3}
    - time: 0.9583333
      value: {fileID: 21300000, guid: 799a7ecc097f5e04699061438fd7d9b9, type: 3}
    - time: 1
      value: {fileID: 21300000, guid: 1149439cf0f84864d80473d56b9f3aab, type: 3}
    - time: 1.0416666
      value: {fileID: 21300000, guid: e1f2fcd45a02bad4e85c5b6eefc9145f, type: 3}
    - time: 1.0833334
      value: {fileID: 21300000, guid: 9c870798d4a26224d87a4a85c7cac568, type: 3}
    - time: 1.125
      value: {fileID: 21300000, guid: 5e0e893520df64447861fb13cb4a58e0, type: 3}
    - time: 1.1666666
      value: {fileID: 21300000, guid: c3ec68ca1a7a4734b8f0cf461a5c41bc, type: 3}
    - time: 1.2083334
      value: {fileID: 21300000, guid: 2a015c204ab5112478be5af45d5daf01, type: 3}
    - time: 1.25
      value: {fileID: 21300000, guid: c7daad379693636489c2914c94fde61a, type: 3}
    - time: 1.2916666
      value: {fileID: 21300000, guid: 7bffa727389b48942a6e7c1206f4bb14, type: 3}
    - time: 1.3333334
      value: {fileID: 21300000, guid: ed645384668ebfe4281fe549a918f328, type: 3}
    - time: 1.375
      value: {fileID: 21300000, guid: daec5dd0e727b624d9b85e4886daf2a0, type: 3}
    - time: 1.4166666
      value: {fileID: 21300000, guid: c329e05b89fdc3f488e96be44af4f8c8, type: 3}
    - time: 1.4583334
      value: {fileID: 21300000, guid: b0a38607f510ac64c92f595fb7e9dbf4, type: 3}
    - time: 1.5
      value: {fileID: 21300000, guid: 328ad178912b3c244968b07b61922a70, type: 3}
    - time: 1.5416666
      value: {fileID: 21300000, guid: 7a381815e4a3ebf47a4171b20287420b, type: 3}
    - time: 1.5833334
      value: {fileID: 21300000, guid: 6d4c45b4f40fcf849af687068bf66e58, type: 3}
    - time: 1.625
      value: {fileID: 21300000, guid: 8eb85697aaa37f24b8bb5699e838d407, type: 3}
    - time: 1.6666666
      value: {fileID: 21300000, guid: 94442da268aaabc4a853521cdd612a08, type: 3}
    - time: 1.7083334
      value: {fileID: 21300000, guid: dbb74f85e0f0a1342a5fd69058237d38, type: 3}
    - time: 1.75
      value: {fileID: 21300000, guid: 2b649cbf0d16dae45b31740678adbeb2, type: 3}
    - time: 1.7916666
      value: {fileID: 21300000, guid: ba503848bb11bcd4c8b1a665f05985cc, type: 3}
    - time: 1.8333334
      value: {fileID: 21300000, guid: 448572d6ec9e1a84c817582cbac81287, type: 3}
    - time: 1.875
      value: {fileID: 21300000, guid: 722107a658f28f647ac8a30f4d47a3f1, type: 3}
    - time: 1.9166666
      value: {fileID: 21300000, guid: 395cbd953d8ecd74fb04b0e15f1fe823, type: 3}
    - time: 1.9583334
      value: {fileID: 21300000, guid: 0e5bb3047a53b884db47afcde6081e7c, type: 3}
    - time: 2
      value: {fileID: 21300000, guid: bb028a253d5c3ed458cf9e15647dfd16, type: 3}
    - time: 2.0416667
      value: {fileID: 21300000, guid: e70f134dcda0cd84ebc1393e5ac2407a, type: 3}
    - time: 2.0833333
      value: {fileID: 21300000, guid: 5c85dac905f53c84e98d5c66825fd544, type: 3}
    - time: 2.125
      value: {fileID: 21300000, guid: b3f854e4fffd4a9418cb0c10fd0435ac, type: 3}
    - time: 2.1666667
      value: {fileID: 21300000, guid: 07f4e54832e667b47891049e46681d75, type: 3}
    - time: 2.2083333
      value: {fileID: 21300000, guid: 8dee6aaee93279c4ea73d41e362ecacc, type: 3}
    - time: 2.25
      value: {fileID: 21300000, guid: 785e7fd25b0651b42ba6a5533181aef6, type: 3}
    - time: 2.2916667
      value: {fileID: 21300000, guid: 496dc87c75d49124b8bc417ec22121fb, type: 3}
    - time: 2.3333333
      value: {fileID: 21300000, guid: bc9c4effe5ab6bc409bb6bf0f09d8a37, type: 3}
    - time: 2.375
      value: {fileID: 21300000, guid: f8f083dea9fba0a46967e14c7201e1d5, type: 3}
    - time: 2.4166667
      value: {fileID: 21300000, guid: 96c5404c14e93694985e94365b4bc1ed, type: 3}
    - time: 2.4583333
      value: {fileID: 21300000, guid: a0894c63be333b1459ad92c30967f18a, type: 3}
    - time: 2.5
      value: {fileID: 21300000, guid: 0e4d8e65fc4155240a24eebbd5ffdb6f, type: 3}
    - time: 2.5416667
      value: {fileID: 21300000, guid: fc07d5b06a48e1e4db9ada495662190f, type: 3}
    - time: 2.5833333
      value: {fileID: 21300000, guid: 1969000812740be40bd6601454ac8c9b, type: 3}
    - time: 2.625
      value: {fileID: 21300000, guid: a13a589b1427fc845a7363e0f5609d7b, type: 3}
    - time: 2.6666667
      value: {fileID: 21300000, guid: 55ce217f509ade547a42e51711171f79, type: 3}
    - time: 2.7083333
      value: {fileID: 21300000, guid: 1563e970c7927ba449f75b8b5ed7c842, type: 3}
    - time: 2.75
      value: {fileID: 21300000, guid: 09ca8002f70afdf4a9092d59263aff98, type: 3}
    attribute: m_Sprite
    path: 
    classID: 114
    script: {fileID: -765806418, guid: f70555f144d8491a825f0804e09c671c, type: 3}
  m_SampleRate: 24
  m_WrapMode: 0
  m_Bounds:
    m_Center: {x: 0, y: 0, z: 0}
    m_Extent: {x: 0, y: 0, z: 0}
  m_ClipBindingConstant:
    genericBindings:
    - serializedVersion: 2
      path: 0
      attribute: 2015549526
      script: {fileID: -765806418, guid: f70555f144d8491a825f0804e09c671c, type: 3}
      typeID: 114
      customType: 0
      isPPtrCurve: 1
    pptrCurveMapping:
    - {fileID: 21300000, guid: b3dc3325d3a75e141a319a7e6218f1f3, type: 3}
    - {fileID: 21300000, guid: af4a0c831afcaf645962b189df57c0d3, type: 3}
    - {fileID: 21300000, guid: 3447c577750c5984cb44e06621270131, type: 3}
    - {fileID: 21300000, guid: a47ba8857cc12f84c9e0204598920367, type: 3}
    - {fileID: 21300000, guid: a34fcaf4c73c83b46bca3ce159937e89, type: 3}
    - {fileID: 21300000, guid: c62b870a6f34a3d419ae8e91ddbde210, type: 3}
    - {fileID: 21300000, guid: de9ae7f3d17ef7347b882eb10d9f93cf, type: 3}
    - {fileID: 21300000, guid: b5a3d95d0aec7884f91f60dde8bc035b, type: 3}
    - {fileID: 21300000, guid: c5662a9741d01984691227747b3d2ce8, type: 3}
    - {fileID: 21300000, guid: 596baab7133faaf4696f6a84df8a6609, type: 3}
    - {fileID: 21300000, guid: 8af8ce77299adb341acdbdb825fffce1, type: 3}
    - {fileID: 21300000, guid: 42096cdb25a096f4f9367bde124094a0, type: 3}
    - {fileID: 21300000, guid: a5e08ae487202214e9bc3d16cc2564ca, type: 3}
    - {fileID: 21300000, guid: 1773def54b88d4c4482f61e7460f3902, type: 3}
    - {fileID: 21300000, guid: 236f0c77e73e91444a3e7568faa2ea87, type: 3}
    - {fileID: 21300000, guid: 357cde2a1d9866648833ecddd03b2953, type: 3}
    - {fileID: 21300000, guid: 4ea13d231472d1a45a5794da624cf299, type: 3}
    - {fileID: 21300000, guid: 67ee7a6f15986f6469840eff634b1f6b, type: 3}
    - {fileID: 21300000, guid: adaa40b293a34dc4ba2b4dfbcae71720, type: 3}
    - {fileID: 21300000, guid: 959d49e17f233ce43bd5faa7d3fa9a92, type: 3}
    - {fileID: 21300000, guid: 65fadf4b946eb6f4cbbda974df40e5d5, type: 3}
    - {fileID: 21300000, guid: 1946f21579f323b4eb6aaa01f676ca96, type: 3}
    - {fileID: 21300000, guid: 7e71b9531cd1b1e45b0fa06120f6dbdf, type: 3}
    - {fileID: 21300000, guid: 799a7ecc097f5e04699061438fd7d9b9, type: 3}
    - {fileID: 21300000, guid: 1149439cf0f84864d80473d56b9f3aab, type: 3}
    - {fileID: 21300000, guid: e1f2fcd45a02bad4e85c5b6eefc9145f, type: 3}
    - {fileID: 21300000, guid: 9c870798d4a26224d87a4a85c7cac568, type: 3}
    - {fileID: 21300000, guid: 5e0e893520df64447861fb13cb4a58e0, type: 3}
    - {fileID: 21300000, guid: c3ec68ca1a7a4734b8f0cf461a5c41bc, type: 3}
    - {fileID: 21300000, guid: 2a015c204ab5112478be5af45d5daf01, type: 3}
    - {fileID: 21300000, guid: c7daad379693636489c2914c94fde61a, type: 3}
    - {fileID: 21300000, guid: 7bffa727389b48942a6e7c1206f4bb14, type: 3}
    - {fileID: 21300000, guid: ed645384668ebfe4281fe549a918f328, type: 3}
    - {fileID: 21300000, guid: daec5dd0e727b624d9b85e4886daf2a0, type: 3}
    - {fileID: 21300000, guid: c329e05b89fdc3f488e96be44af4f8c8, type: 3}
    - {fileID: 21300000, guid: b0a38607f510ac64c92f595fb7e9dbf4, type: 3}
    - {fileID: 21300000, guid: 328ad178912b3c244968b07b61922a70, type: 3}
    - {fileID: 21300000, guid: 7a381815e4a3ebf47a4171b20287420b, type: 3}
    - {fileID: 21300000, guid: 6d4c45b4f40fcf849af687068bf66e58, type: 3}
    - {fileID: 21300000, guid: 8eb85697aaa37f24b8bb5699e838d407, type: 3}
    - {fileID: 21300000, guid: 94442da268aaabc4a853521cdd612a08, type: 3}
    - {fileID: 21300000, guid: dbb74f85e0f0a1342a5fd69058237d38, type: 3}
    - {fileID: 21300000, guid: 2b649cbf0d16dae45b31740678adbeb2, type: 3}
    - {fileID: 21300000, guid: ba503848bb11bcd4c8b1a665f05985cc, type: 3}
    - {fileID: 21300000, guid: 448572d6ec9e1a84c817582cbac81287, type: 3}
    - {fileID: 21300000, guid: 722107a658f28f647ac8a30f4d47a3f1, type: 3}
    - {fileID: 21300000, guid: 395cbd953d8ecd74fb04b0e15f1fe823, type: 3}
    - {fileID: 21300000, guid: 0e5bb3047a53b884db47afcde6081e7c, type: 3}
    - {fileID: 21300000, guid: bb028a253d5c3ed458cf9e15647dfd16, type: 3}
    - {fileID: 21300000, guid: e70f134dcda0cd84ebc1393e5ac2407a, type: 3}
    - {fileID: 21300000, guid: 5c85dac905f53c84e98d5c66825fd544, type: 3}
    - {fileID: 21300000, guid: b3f854e4fffd4a9418cb0c10fd0435ac, type: 3}
    - {fileID: 21300000, guid: 07f4e54832e667b47891049e46681d75, type: 3}
    - {fileID: 21300000, guid: 8dee6aaee93279c4ea73d41e362ecacc, type: 3}
    - {fileID: 21300000, guid: 785e7fd25b0651b42ba6a5533181aef6, type: 3}
    - {fileID: 21300000, guid: 496dc87c75d49124b8bc417ec22121fb, type: 3}
    - {fileID: 21300000, guid: bc9c4effe5ab6bc409bb6bf0f09d8a37, type: 3}
    - {fileID: 21300000, guid: f8f083dea9fba0a46967e14c7201e1d5, type: 3}
    - {fileID: 21300000, guid: 96c5404c14e93694985e94365b4bc1ed, type: 3}
    - {fileID: 21300000, guid: a0894c63be333b1459ad92c30967f18a, type: 3}
    - {fileID: 21300000, guid: 0e4d8e65fc4155240a24eebbd5ffdb6f, type: 3}
    - {fileID: 21300000, guid: fc07d5b06a48e1e4db9ada495662190f, type: 3}
    - {fileID: 21300000, guid: 1969000812740be40bd6601454ac8c9b, type: 3}
    - {fileID: 21300000, guid: a13a589b1427fc845a7363e0f5609d7b, type: 3}
    - {fileID: 21300000, guid: 55ce217f509ade547a42e51711171f79, type: 3}
    - {fileID: 21300000, guid: 1563e970c7927ba449f75b8b5ed7c842, type: 3}
    - {fileID: 21300000, guid: 09ca8002f70afdf4a9092d59263aff98, type: 3}
  m_AnimationClipSettings:
    serializedVersion: 2
    m_AdditiveReferencePoseClip: {fileID: 0}
    m_AdditiveReferencePoseTime: 0
    m_StartTime: 0
    m_StopTime: 2.7916667
    m_OrientationOffsetY: 0
    m_Level: 0
    m_CycleOffset: 0
    m_HasAdditiveReferencePose: 0
    m_LoopTime: 0
    m_LoopBlend: 0
    m_LoopBlendOrientation: 0
    m_LoopBlendPositionY: 0
    m_LoopBlendPositionXZ: 0
    m_KeepOriginalOrientation: 0
    m_KeepOriginalPositionY: 1
    m_KeepOriginalPositionXZ: 0
    m_HeightFromFeet: 0
    m_Mirror: 0
  m_EditorCurves: []
  m_EulerEditorCurves: []
  m_HasGenericRootTransform: 0
  m_HasMotionFloatCurves: 0
  m_Events: []
