%YAML 1.1
%TAG !u! tag:unity3d.com,2011:
--- !u!74 &7400000
AnimationClip:
  m_ObjectHideFlags: 0
  m_CorrespondingSourceObject: {fileID: 0}
  m_PrefabInstance: {fileID: 0}
  m_PrefabAsset: {fileID: 0}
  m_Name: KingHappy
  serializedVersion: 6
  m_Legacy: 0
  m_Compressed: 0
  m_UseHighQualityCurve: 1
  m_RotationCurves: []
  m_CompressedRotationCurves: []
  m_EulerCurves: []
  m_PositionCurves: []
  m_ScaleCurves: []
  m_FloatCurves: []
  m_PPtrCurves:
  - curve:
    - time: 0
      value: {fileID: 21300000, guid: 462fa3e407cf10b42ac389e46557f483, type: 3}
    - time: 0.027777778
      value: {fileID: 21300000, guid: 9f68515891d623548a301468251d7596, type: 3}
    - time: 0.055555556
      value: {fileID: 21300000, guid: 1b7d91e7111054a4babd770895636367, type: 3}
    - time: 0.083333336
      value: {fileID: 21300000, guid: e6c9815a8f36a87449aae91e2b3b0b19, type: 3}
    - time: 0.11111111
      value: {fileID: 21300000, guid: e8c4b92b8a69de04fb2eaab4cc4cfe13, type: 3}
    - time: 0.1388889
      value: {fileID: 21300000, guid: 5ea257147949c8342b09b04f0560614d, type: 3}
    - time: 0.16666667
      value: {fileID: 21300000, guid: 89c2977ed1f502e40819c5bbd6b06011, type: 3}
    - time: 0.19444445
      value: {fileID: 21300000, guid: ff2c12f07323d6544b67c3e0d9acc12d, type: 3}
    - time: 0.22222222
      value: {fileID: 21300000, guid: f0ce9b78ee8bf9940b3dd7850d578d26, type: 3}
    - time: 0.25
      value: {fileID: 21300000, guid: d491cbc3163738343b3dcfcd425b8058, type: 3}
    - time: 0.2777778
      value: {fileID: 21300000, guid: 7472a30f3b51a364e801e8b356fb33c0, type: 3}
    - time: 0.30555555
      value: {fileID: 21300000, guid: 482cc3befaac1d745b97ec1436819f0f, type: 3}
    - time: 0.33333334
      value: {fileID: 21300000, guid: f3e189efb2f5d994197a5133ce2c9dc3, type: 3}
    - time: 0.3611111
      value: {fileID: 21300000, guid: 7fcdbf1c2883919489c81540d8c99ffe, type: 3}
    - time: 0.3888889
      value: {fileID: 21300000, guid: 1a4b51aef82727446b26c44cf9f648c1, type: 3}
    - time: 0.41666666
      value: {fileID: 21300000, guid: 620a346afbf80b24b95c697f13547617, type: 3}
    - time: 0.44444445
      value: {fileID: 21300000, guid: 27cabbeb27a3d944aaec37996e1ee1a8, type: 3}
    - time: 0.4722222
      value: {fileID: 21300000, guid: ecc6e5aa9dc6f6c47a5e92b1fbc5d433, type: 3}
    - time: 0.5
      value: {fileID: 21300000, guid: 619123e62525b534cab1ba0635eb75ab, type: 3}
    - time: 0.5277778
      value: {fileID: 21300000, guid: 63235056ec3916e4d9fc750fd550316b, type: 3}
    - time: 0.5555556
      value: {fileID: 21300000, guid: ce72a7d75bdd0454f9816e29708b0472, type: 3}
    - time: 0.5833333
      value: {fileID: 21300000, guid: f7f30f2fe5aa5ce439a05e95ac8b9f3b, type: 3}
    - time: 0.6111111
      value: {fileID: 21300000, guid: f9711d1429b19a84db61b4913da6b1c6, type: 3}
    - time: 0.6388889
      value: {fileID: 21300000, guid: d0adf641fe3474240bf7388039c8db43, type: 3}
    - time: 0.6666667
      value: {fileID: 21300000, guid: 982643a4408c98f458310b20a421cfb0, type: 3}
    - time: 0.6944444
      value: {fileID: 21300000, guid: 0e1ae2ab9eb40d54290c8bf0a7e50143, type: 3}
    - time: 0.7222222
      value: {fileID: 21300000, guid: a2189520404a39d418ea070f498160ac, type: 3}
    - time: 0.75
      value: {fileID: 21300000, guid: 5b1fb0eb3b267f8409499667ecd06946, type: 3}
    - time: 0.7777778
      value: {fileID: 21300000, guid: 70bbe13e05559c8408424cd960cc876a, type: 3}
    - time: 0.8055556
      value: {fileID: 21300000, guid: 47aebf19b1dd6ac41806b3914eae455a, type: 3}
    attribute: m_Sprite
    path: 
    classID: 114
    script: {fileID: -765806418, guid: f70555f144d8491a825f0804e09c671c, type: 3}
  m_SampleRate: 36
  m_WrapMode: 0
  m_Bounds:
    m_Center: {x: 0, y: 0, z: 0}
    m_Extent: {x: 0, y: 0, z: 0}
  m_ClipBindingConstant:
    genericBindings:
    - serializedVersion: 2
      path: 0
      attribute: 2015549526
      script: {fileID: -765806418, guid: f70555f144d8491a825f0804e09c671c, type: 3}
      typeID: 114
      customType: 0
      isPPtrCurve: 1
    pptrCurveMapping:
    - {fileID: 21300000, guid: 462fa3e407cf10b42ac389e46557f483, type: 3}
    - {fileID: 21300000, guid: 9f68515891d623548a301468251d7596, type: 3}
    - {fileID: 21300000, guid: 1b7d91e7111054a4babd770895636367, type: 3}
    - {fileID: 21300000, guid: e6c9815a8f36a87449aae91e2b3b0b19, type: 3}
    - {fileID: 21300000, guid: e8c4b92b8a69de04fb2eaab4cc4cfe13, type: 3}
    - {fileID: 21300000, guid: 5ea257147949c8342b09b04f0560614d, type: 3}
    - {fileID: 21300000, guid: 89c2977ed1f502e40819c5bbd6b06011, type: 3}
    - {fileID: 21300000, guid: ff2c12f07323d6544b67c3e0d9acc12d, type: 3}
    - {fileID: 21300000, guid: f0ce9b78ee8bf9940b3dd7850d578d26, type: 3}
    - {fileID: 21300000, guid: d491cbc3163738343b3dcfcd425b8058, type: 3}
    - {fileID: 21300000, guid: 7472a30f3b51a364e801e8b356fb33c0, type: 3}
    - {fileID: 21300000, guid: 482cc3befaac1d745b97ec1436819f0f, type: 3}
    - {fileID: 21300000, guid: f3e189efb2f5d994197a5133ce2c9dc3, type: 3}
    - {fileID: 21300000, guid: 7fcdbf1c2883919489c81540d8c99ffe, type: 3}
    - {fileID: 21300000, guid: 1a4b51aef82727446b26c44cf9f648c1, type: 3}
    - {fileID: 21300000, guid: 620a346afbf80b24b95c697f13547617, type: 3}
    - {fileID: 21300000, guid: 27cabbeb27a3d944aaec37996e1ee1a8, type: 3}
    - {fileID: 21300000, guid: ecc6e5aa9dc6f6c47a5e92b1fbc5d433, type: 3}
    - {fileID: 21300000, guid: 619123e62525b534cab1ba0635eb75ab, type: 3}
    - {fileID: 21300000, guid: 63235056ec3916e4d9fc750fd550316b, type: 3}
    - {fileID: 21300000, guid: ce72a7d75bdd0454f9816e29708b0472, type: 3}
    - {fileID: 21300000, guid: f7f30f2fe5aa5ce439a05e95ac8b9f3b, type: 3}
    - {fileID: 21300000, guid: f9711d1429b19a84db61b4913da6b1c6, type: 3}
    - {fileID: 21300000, guid: d0adf641fe3474240bf7388039c8db43, type: 3}
    - {fileID: 21300000, guid: 982643a4408c98f458310b20a421cfb0, type: 3}
    - {fileID: 21300000, guid: 0e1ae2ab9eb40d54290c8bf0a7e50143, type: 3}
    - {fileID: 21300000, guid: a2189520404a39d418ea070f498160ac, type: 3}
    - {fileID: 21300000, guid: 5b1fb0eb3b267f8409499667ecd06946, type: 3}
    - {fileID: 21300000, guid: 70bbe13e05559c8408424cd960cc876a, type: 3}
    - {fileID: 21300000, guid: 47aebf19b1dd6ac41806b3914eae455a, type: 3}
  m_AnimationClipSettings:
    serializedVersion: 2
    m_AdditiveReferencePoseClip: {fileID: 0}
    m_AdditiveReferencePoseTime: 0
    m_StartTime: 0
    m_StopTime: 0.8333334
    m_OrientationOffsetY: 0
    m_Level: 0
    m_CycleOffset: 0
    m_HasAdditiveReferencePose: 0
    m_LoopTime: 1
    m_LoopBlend: 0
    m_LoopBlendOrientation: 0
    m_LoopBlendPositionY: 0
    m_LoopBlendPositionXZ: 0
    m_KeepOriginalOrientation: 0
    m_KeepOriginalPositionY: 1
    m_KeepOriginalPositionXZ: 0
    m_HeightFromFeet: 0
    m_Mirror: 0
  m_EditorCurves: []
  m_EulerEditorCurves: []
  m_HasGenericRootTransform: 0
  m_HasMotionFloatCurves: 0
  m_Events: []
