%YAML 1.1
%TAG !u! tag:unity3d.com,2011:
--- !u!74 &7400000
AnimationClip:
  m_ObjectHideFlags: 0
  m_CorrespondingSourceObject: {fileID: 0}
  m_PrefabInstance: {fileID: 0}
  m_PrefabAsset: {fileID: 0}
  m_Name: ShamanMenu
  serializedVersion: 6
  m_Legacy: 0
  m_Compressed: 0
  m_UseHighQualityCurve: 1
  m_RotationCurves: []
  m_CompressedRotationCurves: []
  m_EulerCurves: []
  m_PositionCurves: []
  m_ScaleCurves: []
  m_FloatCurves: []
  m_PPtrCurves:
  - curve:
    - time: 0
      value: {fileID: 21300000, guid: 77f9085e71e8c894897b8e15e6d8ce94, type: 3}
    - time: 0.041666668
      value: {fileID: 21300000, guid: 2f01078817e025a44ba952e656ee8901, type: 3}
    - time: 0.083333336
      value: {fileID: 21300000, guid: e90d3756607c4894c96b3159e408bb1c, type: 3}
    - time: 0.125
      value: {fileID: 21300000, guid: eb9934e26e6ee3940960e3e5abc3fde3, type: 3}
    - time: 0.16666667
      value: {fileID: 21300000, guid: 4d3cd3f9f3ecbe847a689c991a495468, type: 3}
    - time: 0.20833333
      value: {fileID: 21300000, guid: 2d1b7f8919006f048b9b14073b4327a2, type: 3}
    - time: 0.25
      value: {fileID: 21300000, guid: 93dd9f9584fc2834fbab5500dcef44ca, type: 3}
    - time: 0.29166666
      value: {fileID: 21300000, guid: ea2c08f361687d94a932a0620bbcc1fe, type: 3}
    - time: 0.33333334
      value: {fileID: 21300000, guid: d5ef57ef3c5aa544e98a43346ca5b2c0, type: 3}
    - time: 0.375
      value: {fileID: 21300000, guid: a0c5105827c3d324c95dfa32665bd78b, type: 3}
    - time: 0.41666666
      value: {fileID: 21300000, guid: 38c701011881a5c4b8d353c72a67285b, type: 3}
    - time: 0.45833334
      value: {fileID: 21300000, guid: 95d07f12cea45d04ab32684fffe00ca8, type: 3}
    - time: 0.5
      value: {fileID: 21300000, guid: 30b44e8c2238ad14fadf203acb0dadff, type: 3}
    - time: 0.5416667
      value: {fileID: 21300000, guid: 4baf49d7572110046bea53aa36be0773, type: 3}
    - time: 0.5833333
      value: {fileID: 21300000, guid: fbb27755f77a5fb4c9ca56eedd4e8374, type: 3}
    - time: 0.625
      value: {fileID: 21300000, guid: b98ad6ce5f4940f4a8027fac6d643d31, type: 3}
    - time: 0.6666667
      value: {fileID: 21300000, guid: b3a0e9076cb0b1b44acac9f718bf9377, type: 3}
    - time: 0.7083333
      value: {fileID: 21300000, guid: d45cedb2379bd514f940cb7973ad1a64, type: 3}
    - time: 0.75
      value: {fileID: 21300000, guid: d8b4f378c59e6324da8ed4eb2e8ddcbd, type: 3}
    - time: 0.7916667
      value: {fileID: 21300000, guid: 3d9835543a9836b45b7f59bace3f7d6f, type: 3}
    - time: 0.8333333
      value: {fileID: 21300000, guid: 7f2dab351241f7243b50577f15555d74, type: 3}
    - time: 0.875
      value: {fileID: 21300000, guid: 8dbe1ad35aa8c4a43bf93278558305ee, type: 3}
    - time: 0.9166667
      value: {fileID: 21300000, guid: e14c213f2fd182b41bf9d2dd7d92bce6, type: 3}
    - time: 0.9583333
      value: {fileID: 21300000, guid: 178314df5f96bb040baca9043e47030a, type: 3}
    - time: 1
      value: {fileID: 21300000, guid: 74f6550c62e7b6049ba41ba65849084b, type: 3}
    - time: 1.0416666
      value: {fileID: 21300000, guid: 3f080198b0e82af48b7b96fb26c016b3, type: 3}
    - time: 1.0833334
      value: {fileID: 21300000, guid: c6881bac5d46ef64aaee292aaa242d24, type: 3}
    - time: 1.125
      value: {fileID: 21300000, guid: 5634da3bd35e39a4b998b958efef0137, type: 3}
    - time: 1.1666666
      value: {fileID: 21300000, guid: d00f32f40353f8a43b3a7e95b440207f, type: 3}
    - time: 1.2083334
      value: {fileID: 21300000, guid: 6f729b8dd92d654468f77d34097f5f09, type: 3}
    attribute: m_Sprite
    path: 
    classID: 114
    script: {fileID: -765806418, guid: f70555f144d8491a825f0804e09c671c, type: 3}
  m_SampleRate: 24
  m_WrapMode: 0
  m_Bounds:
    m_Center: {x: 0, y: 0, z: 0}
    m_Extent: {x: 0, y: 0, z: 0}
  m_ClipBindingConstant:
    genericBindings:
    - serializedVersion: 2
      path: 0
      attribute: 2015549526
      script: {fileID: -765806418, guid: f70555f144d8491a825f0804e09c671c, type: 3}
      typeID: 114
      customType: 0
      isPPtrCurve: 1
    pptrCurveMapping:
    - {fileID: 21300000, guid: 77f9085e71e8c894897b8e15e6d8ce94, type: 3}
    - {fileID: 21300000, guid: 2f01078817e025a44ba952e656ee8901, type: 3}
    - {fileID: 21300000, guid: e90d3756607c4894c96b3159e408bb1c, type: 3}
    - {fileID: 21300000, guid: eb9934e26e6ee3940960e3e5abc3fde3, type: 3}
    - {fileID: 21300000, guid: 4d3cd3f9f3ecbe847a689c991a495468, type: 3}
    - {fileID: 21300000, guid: 2d1b7f8919006f048b9b14073b4327a2, type: 3}
    - {fileID: 21300000, guid: 93dd9f9584fc2834fbab5500dcef44ca, type: 3}
    - {fileID: 21300000, guid: ea2c08f361687d94a932a0620bbcc1fe, type: 3}
    - {fileID: 21300000, guid: d5ef57ef3c5aa544e98a43346ca5b2c0, type: 3}
    - {fileID: 21300000, guid: a0c5105827c3d324c95dfa32665bd78b, type: 3}
    - {fileID: 21300000, guid: 38c701011881a5c4b8d353c72a67285b, type: 3}
    - {fileID: 21300000, guid: 95d07f12cea45d04ab32684fffe00ca8, type: 3}
    - {fileID: 21300000, guid: 30b44e8c2238ad14fadf203acb0dadff, type: 3}
    - {fileID: 21300000, guid: 4baf49d7572110046bea53aa36be0773, type: 3}
    - {fileID: 21300000, guid: fbb27755f77a5fb4c9ca56eedd4e8374, type: 3}
    - {fileID: 21300000, guid: b98ad6ce5f4940f4a8027fac6d643d31, type: 3}
    - {fileID: 21300000, guid: b3a0e9076cb0b1b44acac9f718bf9377, type: 3}
    - {fileID: 21300000, guid: d45cedb2379bd514f940cb7973ad1a64, type: 3}
    - {fileID: 21300000, guid: d8b4f378c59e6324da8ed4eb2e8ddcbd, type: 3}
    - {fileID: 21300000, guid: 3d9835543a9836b45b7f59bace3f7d6f, type: 3}
    - {fileID: 21300000, guid: 7f2dab351241f7243b50577f15555d74, type: 3}
    - {fileID: 21300000, guid: 8dbe1ad35aa8c4a43bf93278558305ee, type: 3}
    - {fileID: 21300000, guid: e14c213f2fd182b41bf9d2dd7d92bce6, type: 3}
    - {fileID: 21300000, guid: 178314df5f96bb040baca9043e47030a, type: 3}
    - {fileID: 21300000, guid: 74f6550c62e7b6049ba41ba65849084b, type: 3}
    - {fileID: 21300000, guid: 3f080198b0e82af48b7b96fb26c016b3, type: 3}
    - {fileID: 21300000, guid: c6881bac5d46ef64aaee292aaa242d24, type: 3}
    - {fileID: 21300000, guid: 5634da3bd35e39a4b998b958efef0137, type: 3}
    - {fileID: 21300000, guid: d00f32f40353f8a43b3a7e95b440207f, type: 3}
    - {fileID: 21300000, guid: 6f729b8dd92d654468f77d34097f5f09, type: 3}
  m_AnimationClipSettings:
    serializedVersion: 2
    m_AdditiveReferencePoseClip: {fileID: 0}
    m_AdditiveReferencePoseTime: 0
    m_StartTime: 0
    m_StopTime: 1.25
    m_OrientationOffsetY: 0
    m_Level: 0
    m_CycleOffset: 0
    m_HasAdditiveReferencePose: 0
    m_LoopTime: 1
    m_LoopBlend: 0
    m_LoopBlendOrientation: 0
    m_LoopBlendPositionY: 0
    m_LoopBlendPositionXZ: 0
    m_KeepOriginalOrientation: 0
    m_KeepOriginalPositionY: 1
    m_KeepOriginalPositionXZ: 0
    m_HeightFromFeet: 0
    m_Mirror: 0
  m_EditorCurves: []
  m_EulerEditorCurves: []
  m_HasGenericRootTransform: 0
  m_HasMotionFloatCurves: 0
  m_Events: []
