%YAML 1.1
%TAG !u! tag:unity3d.com,2011:
--- !u!74 &7400000
AnimationClip:
  m_ObjectHideFlags: 0
  m_CorrespondingSourceObject: {fileID: 0}
  m_PrefabInstance: {fileID: 0}
  m_PrefabAsset: {fileID: 0}
  m_Name: Death
  serializedVersion: 6
  m_Legacy: 0
  m_Compressed: 0
  m_UseHighQualityCurve: 1
  m_RotationCurves: []
  m_CompressedRotationCurves: []
  m_EulerCurves: []
  m_PositionCurves: []
  m_ScaleCurves: []
  m_FloatCurves: []
  m_PPtrCurves:
  - curve:
    - time: 0
      value: {fileID: 21300000, guid: a3bd5a8d2cb2bd742be39ad39af2ddc8, type: 3}
    - time: 0.041666668
      value: {fileID: 21300000, guid: 60678771de0c5de46a6e9995703927d0, type: 3}
    - time: 0.083333336
      value: {fileID: 21300000, guid: 70b7e72d5e338ba41a43d84c01b84c45, type: 3}
    - time: 0.125
      value: {fileID: 21300000, guid: 29b5a775f1545fe40a4809903c25d128, type: 3}
    - time: 0.16666667
      value: {fileID: 21300000, guid: 41109c4c02076404d8b6cb19b4cf5116, type: 3}
    - time: 0.20833333
      value: {fileID: 21300000, guid: f9190386fd6576643bc3a0416c57c8d8, type: 3}
    - time: 0.25
      value: {fileID: 21300000, guid: dfc9784a23a1c8045a74489179a72fdd, type: 3}
    - time: 0.29166666
      value: {fileID: 21300000, guid: c956f4a88fe6eee4aa425556e3430d19, type: 3}
    - time: 0.33333334
      value: {fileID: 21300000, guid: be6df01e42814cc43a3b09622866b217, type: 3}
    - time: 0.375
      value: {fileID: 21300000, guid: 61cb9229fd06d434899a7405dc2fedad, type: 3}
    - time: 0.41666666
      value: {fileID: 21300000, guid: cea937dfb58ea4b4d83e164a4bc38794, type: 3}
    - time: 0.45833334
      value: {fileID: 21300000, guid: a2e3b9c2995f7d14e99b16053c836aac, type: 3}
    - time: 0.5
      value: {fileID: 21300000, guid: 9147a4c163a859b4d9f26550f6590024, type: 3}
    - time: 0.5416667
      value: {fileID: 21300000, guid: 44e4b1f6503421d4fa177e47ef137733, type: 3}
    - time: 0.5833333
      value: {fileID: 21300000, guid: 8cc07a8f3fb60ab498ac8b9959bab616, type: 3}
    - time: 0.625
      value: {fileID: 21300000, guid: 71fd53718aee5284287e4cff08b771a9, type: 3}
    - time: 0.6666667
      value: {fileID: 21300000, guid: 9973b8c81095fba448a08ea129734cfc, type: 3}
    - time: 0.7083333
      value: {fileID: 21300000, guid: 633bbcc4de526ed48b51c418ad130c70, type: 3}
    - time: 0.75
      value: {fileID: 21300000, guid: aa1a238821d4c814da06efca8b91eacd, type: 3}
    - time: 0.7916667
      value: {fileID: 21300000, guid: f925382c96eb61e4b8659ecbd57f2709, type: 3}
    - time: 0.8333333
      value: {fileID: 21300000, guid: ba1189479661d7748b8fff1bba3d36cf, type: 3}
    - time: 0.875
      value: {fileID: 21300000, guid: 3c77f5dd24135a746b5ab6fd8179a449, type: 3}
    - time: 0.9166667
      value: {fileID: 21300000, guid: ad8ccb8d9b17977468b6c492828436f2, type: 3}
    - time: 0.9583333
      value: {fileID: 21300000, guid: ce6765843f181c14c80519e79fbe9c94, type: 3}
    - time: 1
      value: {fileID: 21300000, guid: 370bbc14e36fc2543b0f2488b2dd7a03, type: 3}
    - time: 1.0416666
      value: {fileID: 21300000, guid: 7f3f62f6947169e4db07fd7d948acb85, type: 3}
    - time: 1.0833334
      value: {fileID: 21300000, guid: 1c3f1e309cc597d48890d181e704f7d9, type: 3}
    - time: 1.125
      value: {fileID: 21300000, guid: b8b72a9c1b2a3db4dba6ef7c7f7a2b4a, type: 3}
    - time: 1.1666666
      value: {fileID: 21300000, guid: b337e2d71d6c20848983b958b0b102af, type: 3}
    - time: 1.2083334
      value: {fileID: 21300000, guid: eb8004bfb4ae4e14183620dd14759aa4, type: 3}
    - time: 1.25
      value: {fileID: 21300000, guid: 52363e4678d17954584aa20b2148c3a3, type: 3}
    - time: 1.2916666
      value: {fileID: 21300000, guid: 7a8511dced4028d4fba6d2c9cfce07a4, type: 3}
    - time: 1.3333334
      value: {fileID: 21300000, guid: b8c76321ddbcb8b4dbbb2c91a502dab5, type: 3}
    - time: 1.375
      value: {fileID: 21300000, guid: e37b2e140a4c22e41a5052a45c4daf95, type: 3}
    - time: 1.4166666
      value: {fileID: 21300000, guid: ce6ce363b84662b49b7f65aa8a1e5444, type: 3}
    - time: 1.4583334
      value: {fileID: 21300000, guid: bb6f7b8ccafa71142afb916376a4f1e5, type: 3}
    - time: 1.5
      value: {fileID: 21300000, guid: 0d574c9a2760eb04786eebabd567dfca, type: 3}
    - time: 1.5416666
      value: {fileID: 21300000, guid: d441f308f0c96734bb355bd41066bd9d, type: 3}
    - time: 1.5833334
      value: {fileID: 21300000, guid: 4f7514a50f885164d896fe958ee978ef, type: 3}
    - time: 1.625
      value: {fileID: 21300000, guid: d03517b3fcfda31488b61fbea41c25c8, type: 3}
    - time: 1.6666666
      value: {fileID: 21300000, guid: d5bb7dac800afca469146d89ea3db8b1, type: 3}
    attribute: m_Sprite
    path: 
    classID: 114
    script: {fileID: -765806418, guid: f70555f144d8491a825f0804e09c671c, type: 3}
  m_SampleRate: 24
  m_WrapMode: 0
  m_Bounds:
    m_Center: {x: 0, y: 0, z: 0}
    m_Extent: {x: 0, y: 0, z: 0}
  m_ClipBindingConstant:
    genericBindings:
    - serializedVersion: 2
      path: 0
      attribute: 2015549526
      script: {fileID: -765806418, guid: f70555f144d8491a825f0804e09c671c, type: 3}
      typeID: 114
      customType: 0
      isPPtrCurve: 1
    pptrCurveMapping:
    - {fileID: 21300000, guid: a3bd5a8d2cb2bd742be39ad39af2ddc8, type: 3}
    - {fileID: 21300000, guid: 60678771de0c5de46a6e9995703927d0, type: 3}
    - {fileID: 21300000, guid: 70b7e72d5e338ba41a43d84c01b84c45, type: 3}
    - {fileID: 21300000, guid: 29b5a775f1545fe40a4809903c25d128, type: 3}
    - {fileID: 21300000, guid: 41109c4c02076404d8b6cb19b4cf5116, type: 3}
    - {fileID: 21300000, guid: f9190386fd6576643bc3a0416c57c8d8, type: 3}
    - {fileID: 21300000, guid: dfc9784a23a1c8045a74489179a72fdd, type: 3}
    - {fileID: 21300000, guid: c956f4a88fe6eee4aa425556e3430d19, type: 3}
    - {fileID: 21300000, guid: be6df01e42814cc43a3b09622866b217, type: 3}
    - {fileID: 21300000, guid: 61cb9229fd06d434899a7405dc2fedad, type: 3}
    - {fileID: 21300000, guid: cea937dfb58ea4b4d83e164a4bc38794, type: 3}
    - {fileID: 21300000, guid: a2e3b9c2995f7d14e99b16053c836aac, type: 3}
    - {fileID: 21300000, guid: 9147a4c163a859b4d9f26550f6590024, type: 3}
    - {fileID: 21300000, guid: 44e4b1f6503421d4fa177e47ef137733, type: 3}
    - {fileID: 21300000, guid: 8cc07a8f3fb60ab498ac8b9959bab616, type: 3}
    - {fileID: 21300000, guid: 71fd53718aee5284287e4cff08b771a9, type: 3}
    - {fileID: 21300000, guid: 9973b8c81095fba448a08ea129734cfc, type: 3}
    - {fileID: 21300000, guid: 633bbcc4de526ed48b51c418ad130c70, type: 3}
    - {fileID: 21300000, guid: aa1a238821d4c814da06efca8b91eacd, type: 3}
    - {fileID: 21300000, guid: f925382c96eb61e4b8659ecbd57f2709, type: 3}
    - {fileID: 21300000, guid: ba1189479661d7748b8fff1bba3d36cf, type: 3}
    - {fileID: 21300000, guid: 3c77f5dd24135a746b5ab6fd8179a449, type: 3}
    - {fileID: 21300000, guid: ad8ccb8d9b17977468b6c492828436f2, type: 3}
    - {fileID: 21300000, guid: ce6765843f181c14c80519e79fbe9c94, type: 3}
    - {fileID: 21300000, guid: 370bbc14e36fc2543b0f2488b2dd7a03, type: 3}
    - {fileID: 21300000, guid: 7f3f62f6947169e4db07fd7d948acb85, type: 3}
    - {fileID: 21300000, guid: 1c3f1e309cc597d48890d181e704f7d9, type: 3}
    - {fileID: 21300000, guid: b8b72a9c1b2a3db4dba6ef7c7f7a2b4a, type: 3}
    - {fileID: 21300000, guid: b337e2d71d6c20848983b958b0b102af, type: 3}
    - {fileID: 21300000, guid: eb8004bfb4ae4e14183620dd14759aa4, type: 3}
    - {fileID: 21300000, guid: 52363e4678d17954584aa20b2148c3a3, type: 3}
    - {fileID: 21300000, guid: 7a8511dced4028d4fba6d2c9cfce07a4, type: 3}
    - {fileID: 21300000, guid: b8c76321ddbcb8b4dbbb2c91a502dab5, type: 3}
    - {fileID: 21300000, guid: e37b2e140a4c22e41a5052a45c4daf95, type: 3}
    - {fileID: 21300000, guid: ce6ce363b84662b49b7f65aa8a1e5444, type: 3}
    - {fileID: 21300000, guid: bb6f7b8ccafa71142afb916376a4f1e5, type: 3}
    - {fileID: 21300000, guid: 0d574c9a2760eb04786eebabd567dfca, type: 3}
    - {fileID: 21300000, guid: d441f308f0c96734bb355bd41066bd9d, type: 3}
    - {fileID: 21300000, guid: 4f7514a50f885164d896fe958ee978ef, type: 3}
    - {fileID: 21300000, guid: d03517b3fcfda31488b61fbea41c25c8, type: 3}
    - {fileID: 21300000, guid: d5bb7dac800afca469146d89ea3db8b1, type: 3}
  m_AnimationClipSettings:
    serializedVersion: 2
    m_AdditiveReferencePoseClip: {fileID: 0}
    m_AdditiveReferencePoseTime: 0
    m_StartTime: 0
    m_StopTime: 1.7083333
    m_OrientationOffsetY: 0
    m_Level: 0
    m_CycleOffset: 0
    m_HasAdditiveReferencePose: 0
    m_LoopTime: 0
    m_LoopBlend: 0
    m_LoopBlendOrientation: 0
    m_LoopBlendPositionY: 0
    m_LoopBlendPositionXZ: 0
    m_KeepOriginalOrientation: 0
    m_KeepOriginalPositionY: 1
    m_KeepOriginalPositionXZ: 0
    m_HeightFromFeet: 0
    m_Mirror: 0
  m_EditorCurves: []
  m_EulerEditorCurves: []
  m_HasGenericRootTransform: 0
  m_HasMotionFloatCurves: 0
  m_Events: []
