%YAML 1.1
%TAG !u! tag:unity3d.com,2011:
--- !u!74 &7400000
AnimationClip:
  m_ObjectHideFlags: 0
  m_CorrespondingSourceObject: {fileID: 0}
  m_PrefabInstance: {fileID: 0}
  m_PrefabAsset: {fileID: 0}
  m_Name: Walk
  serializedVersion: 6
  m_Legacy: 0
  m_Compressed: 0
  m_UseHighQualityCurve: 1
  m_RotationCurves: []
  m_CompressedRotationCurves: []
  m_EulerCurves: []
  m_PositionCurves: []
  m_ScaleCurves: []
  m_FloatCurves: []
  m_PPtrCurves:
  - curve:
    - time: 0
      value: {fileID: 21300000, guid: 30d7d5eefe59d874699da9aa4aab886a, type: 3}
    - time: 0.041666668
      value: {fileID: 21300000, guid: 7edecec2f14281947aef8257847a213e, type: 3}
    - time: 0.083333336
      value: {fileID: 21300000, guid: bbf284ecc2c7c4544b10adb12b345469, type: 3}
    - time: 0.125
      value: {fileID: 21300000, guid: b4e8508ce06fe8f40a7db95515d5139b, type: 3}
    - time: 0.16666667
      value: {fileID: 21300000, guid: 8802f26a2c59d6944977d5358363ddfd, type: 3}
    - time: 0.20833333
      value: {fileID: 21300000, guid: ca565662e207af64db4d9e62c9adc4ef, type: 3}
    - time: 0.25
      value: {fileID: 21300000, guid: 5fc636ed566dbbe4b9a8c7c0b44fb185, type: 3}
    - time: 0.29166666
      value: {fileID: 21300000, guid: 969f47f8be58b1a499fbf9cdec16ca72, type: 3}
    - time: 0.33333334
      value: {fileID: 21300000, guid: 1272d7009233ae7459253d7b84879d60, type: 3}
    - time: 0.375
      value: {fileID: 21300000, guid: 331466357265ace4ab02b50df9dd53d1, type: 3}
    - time: 0.41666666
      value: {fileID: 21300000, guid: 78d0d857d7fa815469ce2e38dbd75790, type: 3}
    - time: 0.45833334
      value: {fileID: 21300000, guid: 87bce51d4054ea947936a766092be4a4, type: 3}
    - time: 0.5
      value: {fileID: 21300000, guid: e9e6f759b5add5c41afa30b34316508c, type: 3}
    - time: 0.5416667
      value: {fileID: 21300000, guid: 93c6781afe8ab424093a40c4aae62731, type: 3}
    - time: 0.5833333
      value: {fileID: 21300000, guid: bf2dc143673913f43877150685a97cef, type: 3}
    - time: 0.625
      value: {fileID: 21300000, guid: 9225a272477f57d4fb7889d1a6f444c0, type: 3}
    - time: 0.6666667
      value: {fileID: 21300000, guid: 534a7bf43fe388a449743a6a43636377, type: 3}
    - time: 0.7083333
      value: {fileID: 21300000, guid: c4f5ec6b55184b84eb3691ea99071849, type: 3}
    - time: 0.75
      value: {fileID: 21300000, guid: dc0634611ddc92d44b4f988d8295b091, type: 3}
    - time: 0.7916667
      value: {fileID: 21300000, guid: 0d59de88673a48c46a02cb7a9058fad1, type: 3}
    - time: 0.8333333
      value: {fileID: 21300000, guid: 3d6616bc154aff64a9ce249160ae256e, type: 3}
    - time: 0.875
      value: {fileID: 21300000, guid: 7d6cd725e63f78c4ca05a4b3c40f799b, type: 3}
    - time: 0.9166667
      value: {fileID: 21300000, guid: 1d9972488a7fb1d418a84d2712b7a574, type: 3}
    - time: 0.9583333
      value: {fileID: 21300000, guid: 156d55957708a0049b1d74889517ddf1, type: 3}
    - time: 1
      value: {fileID: 21300000, guid: 186e8e3c634c69d4da834fc7e7701ad0, type: 3}
    - time: 1.0416666
      value: {fileID: 21300000, guid: 4058e8d36eb362140a8979ae55b1650b, type: 3}
    - time: 1.0833334
      value: {fileID: 21300000, guid: a08bea24855cfc64a93bbd7c9dc1e1d6, type: 3}
    - time: 1.125
      value: {fileID: 21300000, guid: 581f6f6b5ad2cca4ca50e7e3e0b59850, type: 3}
    attribute: m_Sprite
    path: 
    classID: 114
    script: {fileID: -765806418, guid: f70555f144d8491a825f0804e09c671c, type: 3}
  m_SampleRate: 24
  m_WrapMode: 0
  m_Bounds:
    m_Center: {x: 0, y: 0, z: 0}
    m_Extent: {x: 0, y: 0, z: 0}
  m_ClipBindingConstant:
    genericBindings:
    - serializedVersion: 2
      path: 0
      attribute: 2015549526
      script: {fileID: -765806418, guid: f70555f144d8491a825f0804e09c671c, type: 3}
      typeID: 114
      customType: 0
      isPPtrCurve: 1
    pptrCurveMapping:
    - {fileID: 21300000, guid: 30d7d5eefe59d874699da9aa4aab886a, type: 3}
    - {fileID: 21300000, guid: 7edecec2f14281947aef8257847a213e, type: 3}
    - {fileID: 21300000, guid: bbf284ecc2c7c4544b10adb12b345469, type: 3}
    - {fileID: 21300000, guid: b4e8508ce06fe8f40a7db95515d5139b, type: 3}
    - {fileID: 21300000, guid: 8802f26a2c59d6944977d5358363ddfd, type: 3}
    - {fileID: 21300000, guid: ca565662e207af64db4d9e62c9adc4ef, type: 3}
    - {fileID: 21300000, guid: 5fc636ed566dbbe4b9a8c7c0b44fb185, type: 3}
    - {fileID: 21300000, guid: 969f47f8be58b1a499fbf9cdec16ca72, type: 3}
    - {fileID: 21300000, guid: 1272d7009233ae7459253d7b84879d60, type: 3}
    - {fileID: 21300000, guid: 331466357265ace4ab02b50df9dd53d1, type: 3}
    - {fileID: 21300000, guid: 78d0d857d7fa815469ce2e38dbd75790, type: 3}
    - {fileID: 21300000, guid: 87bce51d4054ea947936a766092be4a4, type: 3}
    - {fileID: 21300000, guid: e9e6f759b5add5c41afa30b34316508c, type: 3}
    - {fileID: 21300000, guid: 93c6781afe8ab424093a40c4aae62731, type: 3}
    - {fileID: 21300000, guid: bf2dc143673913f43877150685a97cef, type: 3}
    - {fileID: 21300000, guid: 9225a272477f57d4fb7889d1a6f444c0, type: 3}
    - {fileID: 21300000, guid: 534a7bf43fe388a449743a6a43636377, type: 3}
    - {fileID: 21300000, guid: c4f5ec6b55184b84eb3691ea99071849, type: 3}
    - {fileID: 21300000, guid: dc0634611ddc92d44b4f988d8295b091, type: 3}
    - {fileID: 21300000, guid: 0d59de88673a48c46a02cb7a9058fad1, type: 3}
    - {fileID: 21300000, guid: 3d6616bc154aff64a9ce249160ae256e, type: 3}
    - {fileID: 21300000, guid: 7d6cd725e63f78c4ca05a4b3c40f799b, type: 3}
    - {fileID: 21300000, guid: 1d9972488a7fb1d418a84d2712b7a574, type: 3}
    - {fileID: 21300000, guid: 156d55957708a0049b1d74889517ddf1, type: 3}
    - {fileID: 21300000, guid: 186e8e3c634c69d4da834fc7e7701ad0, type: 3}
    - {fileID: 21300000, guid: 4058e8d36eb362140a8979ae55b1650b, type: 3}
    - {fileID: 21300000, guid: a08bea24855cfc64a93bbd7c9dc1e1d6, type: 3}
    - {fileID: 21300000, guid: 581f6f6b5ad2cca4ca50e7e3e0b59850, type: 3}
  m_AnimationClipSettings:
    serializedVersion: 2
    m_AdditiveReferencePoseClip: {fileID: 0}
    m_AdditiveReferencePoseTime: 0
    m_StartTime: 0
    m_StopTime: 1.1666666
    m_OrientationOffsetY: 0
    m_Level: 0
    m_CycleOffset: 0
    m_HasAdditiveReferencePose: 0
    m_LoopTime: 1
    m_LoopBlend: 0
    m_LoopBlendOrientation: 0
    m_LoopBlendPositionY: 0
    m_LoopBlendPositionXZ: 0
    m_KeepOriginalOrientation: 0
    m_KeepOriginalPositionY: 1
    m_KeepOriginalPositionXZ: 0
    m_HeightFromFeet: 0
    m_Mirror: 0
  m_EditorCurves: []
  m_EulerEditorCurves: []
  m_HasGenericRootTransform: 0
  m_HasMotionFloatCurves: 0
  m_Events: []
