%YAML 1.1
%TAG !u! tag:unity3d.com,2011:
--- !u!74 &7400000
AnimationClip:
  m_ObjectHideFlags: 0
  m_CorrespondingSourceObject: {fileID: 0}
  m_PrefabInstance: {fileID: 0}
  m_PrefabAsset: {fileID: 0}
  m_Name: Spawn
  serializedVersion: 6
  m_Legacy: 0
  m_Compressed: 0
  m_UseHighQualityCurve: 1
  m_RotationCurves: []
  m_CompressedRotationCurves: []
  m_EulerCurves: []
  m_PositionCurves: []
  m_ScaleCurves: []
  m_FloatCurves: []
  m_PPtrCurves:
  - curve:
    - time: 0
      value: {fileID: 21300000, guid: b3dc3325d3a75e141a319a7e6218f1f3, type: 3}
    - time: 0.041666668
      value: {fileID: 21300000, guid: af4a0c831afcaf645962b189df57c0d3, type: 3}
    - time: 0.083333336
      value: {fileID: 21300000, guid: 3447c577750c5984cb44e06621270131, type: 3}
    - time: 0.125
      value: {fileID: 21300000, guid: a47ba8857cc12f84c9e0204598920367, type: 3}
    - time: 0.16666667
      value: {fileID: 21300000, guid: a34fcaf4c73c83b46bca3ce159937e89, type: 3}
    - time: 0.20833333
      value: {fileID: 21300000, guid: c62b870a6f34a3d419ae8e91ddbde210, type: 3}
    - time: 0.25
      value: {fileID: 21300000, guid: de9ae7f3d17ef7347b882eb10d9f93cf, type: 3}
    - time: 0.29166666
      value: {fileID: 21300000, guid: b5a3d95d0aec7884f91f60dde8bc035b, type: 3}
    - time: 0.33333334
      value: {fileID: 21300000, guid: c5662a9741d01984691227747b3d2ce8, type: 3}
    - time: 0.375
      value: {fileID: 21300000, guid: 596baab7133faaf4696f6a84df8a6609, type: 3}
    - time: 0.41666666
      value: {fileID: 21300000, guid: 8af8ce77299adb341acdbdb825fffce1, type: 3}
    - time: 0.45833334
      value: {fileID: 21300000, guid: 42096cdb25a096f4f9367bde124094a0, type: 3}
    - time: 0.5
      value: {fileID: 21300000, guid: 254e8ae7e63d53e4c942ab18a61699fe, type: 3}
    - time: 0.5416667
      value: {fileID: 21300000, guid: 785a4fed8852d3142a361261dbec5209, type: 3}
    - time: 0.5833333
      value: {fileID: 21300000, guid: ff3937bcee56c984a81fe62e0f23519b, type: 3}
    - time: 0.625
      value: {fileID: 21300000, guid: 8ff3ab2b792486841bc636b88a1fe1db, type: 3}
    - time: 0.6666667
      value: {fileID: 21300000, guid: 8197d72ec1516d749ab0792d43d024ae, type: 3}
    - time: 0.7083333
      value: {fileID: 21300000, guid: fdea9100049b0ad40beca291f2605a51, type: 3}
    - time: 0.75
      value: {fileID: 21300000, guid: 92f42b2080520964db8e73fdc971c942, type: 3}
    - time: 0.7916667
      value: {fileID: 21300000, guid: eceaf91ddd7dada4887c426c55fa7387, type: 3}
    - time: 0.8333333
      value: {fileID: 21300000, guid: 0cac4020fa6a7974bb56db303670ac37, type: 3}
    - time: 0.875
      value: {fileID: 21300000, guid: a99ddaffda8c3ce4e941e5ce6c35f8a8, type: 3}
    - time: 0.9166667
      value: {fileID: 21300000, guid: a6699419ff3cc624fa0fec4a20662f04, type: 3}
    - time: 0.9583333
      value: {fileID: 21300000, guid: 92d27a1c06c1fb14283b690373728f79, type: 3}
    - time: 1
      value: {fileID: 21300000, guid: 369c5254d213b6545aaa4c6619d882a5, type: 3}
    - time: 1.0416666
      value: {fileID: 21300000, guid: 4335b714ebd5d074c8b90569a4befba4, type: 3}
    - time: 1.0833334
      value: {fileID: 21300000, guid: 0a5440fbece3b4545b8cc57ef93fc90e, type: 3}
    - time: 1.125
      value: {fileID: 21300000, guid: 334cf519e3521f14db5c1611b307cb4c, type: 3}
    - time: 1.1666666
      value: {fileID: 21300000, guid: f674621bdaf83d64a89be84975d024dd, type: 3}
    - time: 1.2083334
      value: {fileID: 21300000, guid: 2cdbf087a849dc34cb0630564fde3fe9, type: 3}
    - time: 1.25
      value: {fileID: 21300000, guid: d669f00f1e4664a418e7e8c678db5a7b, type: 3}
    - time: 1.2916666
      value: {fileID: 21300000, guid: 22d6c90f5ecaa0a41b1a2806879ac298, type: 3}
    - time: 1.3333334
      value: {fileID: 21300000, guid: 5869064ef7e051c44ab05828c9979bc6, type: 3}
    - time: 1.375
      value: {fileID: 21300000, guid: 79e0a73226369a44ba107a471fe46dd0, type: 3}
    - time: 1.4166666
      value: {fileID: 21300000, guid: 6f9c1fd63bfd0614f88631b7c6c12558, type: 3}
    - time: 1.4583334
      value: {fileID: 21300000, guid: 6678d8d95ea4c9d49a1e898e1fd57493, type: 3}
    - time: 1.5
      value: {fileID: 21300000, guid: 480746b6197bd1b47b32f7e9ca3370b1, type: 3}
    - time: 1.5416666
      value: {fileID: 21300000, guid: ecd84e20c77b34d478246b467c6421ff, type: 3}
    - time: 1.5833334
      value: {fileID: 21300000, guid: 95b9ab354a2e8d34bac3c146c1abdb23, type: 3}
    - time: 1.625
      value: {fileID: 21300000, guid: deedb5f3a11974d4086e7375c4a9e803, type: 3}
    attribute: m_Sprite
    path: 
    classID: 114
    script: {fileID: -765806418, guid: f70555f144d8491a825f0804e09c671c, type: 3}
  m_SampleRate: 24
  m_WrapMode: 0
  m_Bounds:
    m_Center: {x: 0, y: 0, z: 0}
    m_Extent: {x: 0, y: 0, z: 0}
  m_ClipBindingConstant:
    genericBindings:
    - serializedVersion: 2
      path: 0
      attribute: 2015549526
      script: {fileID: -765806418, guid: f70555f144d8491a825f0804e09c671c, type: 3}
      typeID: 114
      customType: 0
      isPPtrCurve: 1
    pptrCurveMapping:
    - {fileID: 21300000, guid: b3dc3325d3a75e141a319a7e6218f1f3, type: 3}
    - {fileID: 21300000, guid: af4a0c831afcaf645962b189df57c0d3, type: 3}
    - {fileID: 21300000, guid: 3447c577750c5984cb44e06621270131, type: 3}
    - {fileID: 21300000, guid: a47ba8857cc12f84c9e0204598920367, type: 3}
    - {fileID: 21300000, guid: a34fcaf4c73c83b46bca3ce159937e89, type: 3}
    - {fileID: 21300000, guid: c62b870a6f34a3d419ae8e91ddbde210, type: 3}
    - {fileID: 21300000, guid: de9ae7f3d17ef7347b882eb10d9f93cf, type: 3}
    - {fileID: 21300000, guid: b5a3d95d0aec7884f91f60dde8bc035b, type: 3}
    - {fileID: 21300000, guid: c5662a9741d01984691227747b3d2ce8, type: 3}
    - {fileID: 21300000, guid: 596baab7133faaf4696f6a84df8a6609, type: 3}
    - {fileID: 21300000, guid: 8af8ce77299adb341acdbdb825fffce1, type: 3}
    - {fileID: 21300000, guid: 42096cdb25a096f4f9367bde124094a0, type: 3}
    - {fileID: 21300000, guid: 254e8ae7e63d53e4c942ab18a61699fe, type: 3}
    - {fileID: 21300000, guid: 785a4fed8852d3142a361261dbec5209, type: 3}
    - {fileID: 21300000, guid: ff3937bcee56c984a81fe62e0f23519b, type: 3}
    - {fileID: 21300000, guid: 8ff3ab2b792486841bc636b88a1fe1db, type: 3}
    - {fileID: 21300000, guid: 8197d72ec1516d749ab0792d43d024ae, type: 3}
    - {fileID: 21300000, guid: fdea9100049b0ad40beca291f2605a51, type: 3}
    - {fileID: 21300000, guid: 92f42b2080520964db8e73fdc971c942, type: 3}
    - {fileID: 21300000, guid: eceaf91ddd7dada4887c426c55fa7387, type: 3}
    - {fileID: 21300000, guid: 0cac4020fa6a7974bb56db303670ac37, type: 3}
    - {fileID: 21300000, guid: a99ddaffda8c3ce4e941e5ce6c35f8a8, type: 3}
    - {fileID: 21300000, guid: a6699419ff3cc624fa0fec4a20662f04, type: 3}
    - {fileID: 21300000, guid: 92d27a1c06c1fb14283b690373728f79, type: 3}
    - {fileID: 21300000, guid: 369c5254d213b6545aaa4c6619d882a5, type: 3}
    - {fileID: 21300000, guid: 4335b714ebd5d074c8b90569a4befba4, type: 3}
    - {fileID: 21300000, guid: 0a5440fbece3b4545b8cc57ef93fc90e, type: 3}
    - {fileID: 21300000, guid: 334cf519e3521f14db5c1611b307cb4c, type: 3}
    - {fileID: 21300000, guid: f674621bdaf83d64a89be84975d024dd, type: 3}
    - {fileID: 21300000, guid: 2cdbf087a849dc34cb0630564fde3fe9, type: 3}
    - {fileID: 21300000, guid: d669f00f1e4664a418e7e8c678db5a7b, type: 3}
    - {fileID: 21300000, guid: 22d6c90f5ecaa0a41b1a2806879ac298, type: 3}
    - {fileID: 21300000, guid: 5869064ef7e051c44ab05828c9979bc6, type: 3}
    - {fileID: 21300000, guid: 79e0a73226369a44ba107a471fe46dd0, type: 3}
    - {fileID: 21300000, guid: 6f9c1fd63bfd0614f88631b7c6c12558, type: 3}
    - {fileID: 21300000, guid: 6678d8d95ea4c9d49a1e898e1fd57493, type: 3}
    - {fileID: 21300000, guid: 480746b6197bd1b47b32f7e9ca3370b1, type: 3}
    - {fileID: 21300000, guid: ecd84e20c77b34d478246b467c6421ff, type: 3}
    - {fileID: 21300000, guid: 95b9ab354a2e8d34bac3c146c1abdb23, type: 3}
    - {fileID: 21300000, guid: deedb5f3a11974d4086e7375c4a9e803, type: 3}
  m_AnimationClipSettings:
    serializedVersion: 2
    m_AdditiveReferencePoseClip: {fileID: 0}
    m_AdditiveReferencePoseTime: 0
    m_StartTime: 0
    m_StopTime: 1.6666666
    m_OrientationOffsetY: 0
    m_Level: 0
    m_CycleOffset: 0
    m_HasAdditiveReferencePose: 0
    m_LoopTime: 1
    m_LoopBlend: 0
    m_LoopBlendOrientation: 0
    m_LoopBlendPositionY: 0
    m_LoopBlendPositionXZ: 0
    m_KeepOriginalOrientation: 0
    m_KeepOriginalPositionY: 1
    m_KeepOriginalPositionXZ: 0
    m_HeightFromFeet: 0
    m_Mirror: 0
  m_EditorCurves: []
  m_EulerEditorCurves: []
  m_HasGenericRootTransform: 0
  m_HasMotionFloatCurves: 0
  m_Events: []
