%YAML 1.1
%TAG !u! tag:unity3d.com,2011:
--- !u!74 &7400000
AnimationClip:
  m_ObjectHideFlags: 0
  m_CorrespondingSourceObject: {fileID: 0}
  m_PrefabInstance: {fileID: 0}
  m_PrefabAsset: {fileID: 0}
  m_Name: Walk
  serializedVersion: 6
  m_Legacy: 0
  m_Compressed: 0
  m_UseHighQualityCurve: 1
  m_RotationCurves: []
  m_CompressedRotationCurves: []
  m_EulerCurves: []
  m_PositionCurves: []
  m_ScaleCurves: []
  m_FloatCurves: []
  m_PPtrCurves:
  - curve:
    - time: 0
      value: {fileID: 21300000, guid: eb0aa5b885b106e4096a12c97e14936f, type: 3}
    - time: 0.041666668
      value: {fileID: 21300000, guid: 5cb8f11600bba3e47bd51fe2ccc41991, type: 3}
    - time: 0.083333336
      value: {fileID: 21300000, guid: ce1dac29a3c510e4ca13627310401af5, type: 3}
    - time: 0.125
      value: {fileID: 21300000, guid: fd6e6141a358bcb45bf2f4241c990633, type: 3}
    - time: 0.16666667
      value: {fileID: 21300000, guid: 7aca6ae13527a684aa52c4381006a17c, type: 3}
    - time: 0.20833333
      value: {fileID: 21300000, guid: e148a30382f0aec41b2a8ee28574470c, type: 3}
    - time: 0.25
      value: {fileID: 21300000, guid: adb2ee6fb6fe5494d843e87196b3a89d, type: 3}
    - time: 0.29166666
      value: {fileID: 21300000, guid: 78ab1a87660d55f408c0a3fb3699189a, type: 3}
    - time: 0.33333334
      value: {fileID: 21300000, guid: 7c3c2583e7c049346bcfbfc52182c61b, type: 3}
    - time: 0.375
      value: {fileID: 21300000, guid: 500142fc494ec554c8cdce6839a9519d, type: 3}
    - time: 0.41666666
      value: {fileID: 21300000, guid: 0780331d74a5f814c840b5dffe69468c, type: 3}
    - time: 0.45833334
      value: {fileID: 21300000, guid: aa0e89954bd667c4da90fa24f02a08d6, type: 3}
    - time: 0.5
      value: {fileID: 21300000, guid: de6c5b9220fbb22458ca450e3e3e905a, type: 3}
    - time: 0.5416667
      value: {fileID: 21300000, guid: 7cedf2030a040724d9172906e7f97522, type: 3}
    - time: 0.5833333
      value: {fileID: 21300000, guid: e66ae25556bd61e43909217a501e3c9d, type: 3}
    - time: 0.625
      value: {fileID: 21300000, guid: 3f4452e902324a143956b689c7df9d5e, type: 3}
    - time: 0.6666667
      value: {fileID: 21300000, guid: 881609f6c970c03468b9ad5f0641b173, type: 3}
    - time: 0.7083333
      value: {fileID: 21300000, guid: 6bce913cb8709044b85b121638d8d979, type: 3}
    - time: 0.75
      value: {fileID: 21300000, guid: 62cd46eef4290814aba8341f8b99b7de, type: 3}
    - time: 0.7916667
      value: {fileID: 21300000, guid: 4c5deb2dbbb241140939fcf38cf7a32b, type: 3}
    - time: 0.8333333
      value: {fileID: 21300000, guid: 6941e91e4450f474489721bba98b0ac2, type: 3}
    - time: 0.875
      value: {fileID: 21300000, guid: 9153576d41a438045a16f94c9073192e, type: 3}
    - time: 0.9166667
      value: {fileID: 21300000, guid: 8d92cf781e60cc243ad528a105d2b78c, type: 3}
    - time: 0.9583333
      value: {fileID: 21300000, guid: 0fea40482f444a8439b0feb9bb30b5c5, type: 3}
    - time: 1
      value: {fileID: 21300000, guid: c1ef6f0f863e4884db5968c7bf03fde5, type: 3}
    - time: 1.0416666
      value: {fileID: 21300000, guid: ebbcb3135ce07644193480b463c2bdd0, type: 3}
    - time: 1.0833334
      value: {fileID: 21300000, guid: 6d2ab80e560940f47b1f84853a44e856, type: 3}
    - time: 1.125
      value: {fileID: 21300000, guid: 0d5454e470aed864499d12460e1feed9, type: 3}
    - time: 1.1666666
      value: {fileID: 21300000, guid: 852f96ff4eced4945bd1611d38fbb748, type: 3}
    - time: 1.2083334
      value: {fileID: 21300000, guid: b2440cf51abebac4a9da646e2833f6d0, type: 3}
    - time: 1.25
      value: {fileID: 21300000, guid: 09d4fffd483160e449edd38490cc21b7, type: 3}
    - time: 1.2916666
      value: {fileID: 21300000, guid: f4b0d8ce429c89f4d81a94e2cd8d06b7, type: 3}
    - time: 1.3333334
      value: {fileID: 21300000, guid: 57b9248151759ef408fccc2d7ff2031b, type: 3}
    - time: 1.375
      value: {fileID: 21300000, guid: 728989a26e01457469f4f548439fd5b7, type: 3}
    - time: 1.4166666
      value: {fileID: 21300000, guid: b7ab25a9389df5f408065e5cf8188fa3, type: 3}
    - time: 1.4583334
      value: {fileID: 21300000, guid: 4b9452222c8f9664abdb1678c0dcc26e, type: 3}
    - time: 1.5
      value: {fileID: 21300000, guid: fba68634d83692a4d94e21b18f99d947, type: 3}
    - time: 1.5416666
      value: {fileID: 21300000, guid: 46618cc3d50a11947a2570df6488fdad, type: 3}
    - time: 1.5833334
      value: {fileID: 21300000, guid: b3ba63097c957474aba3eeb1953eb307, type: 3}
    - time: 1.625
      value: {fileID: 21300000, guid: a85734c7172770843bfb9b23530e5f83, type: 3}
    attribute: m_Sprite
    path: 
    classID: 114
    script: {fileID: -765806418, guid: f70555f144d8491a825f0804e09c671c, type: 3}
  m_SampleRate: 24
  m_WrapMode: 0
  m_Bounds:
    m_Center: {x: 0, y: 0, z: 0}
    m_Extent: {x: 0, y: 0, z: 0}
  m_ClipBindingConstant:
    genericBindings:
    - serializedVersion: 2
      path: 0
      attribute: 2015549526
      script: {fileID: -765806418, guid: f70555f144d8491a825f0804e09c671c, type: 3}
      typeID: 114
      customType: 0
      isPPtrCurve: 1
    pptrCurveMapping:
    - {fileID: 21300000, guid: eb0aa5b885b106e4096a12c97e14936f, type: 3}
    - {fileID: 21300000, guid: 5cb8f11600bba3e47bd51fe2ccc41991, type: 3}
    - {fileID: 21300000, guid: ce1dac29a3c510e4ca13627310401af5, type: 3}
    - {fileID: 21300000, guid: fd6e6141a358bcb45bf2f4241c990633, type: 3}
    - {fileID: 21300000, guid: 7aca6ae13527a684aa52c4381006a17c, type: 3}
    - {fileID: 21300000, guid: e148a30382f0aec41b2a8ee28574470c, type: 3}
    - {fileID: 21300000, guid: adb2ee6fb6fe5494d843e87196b3a89d, type: 3}
    - {fileID: 21300000, guid: 78ab1a87660d55f408c0a3fb3699189a, type: 3}
    - {fileID: 21300000, guid: 7c3c2583e7c049346bcfbfc52182c61b, type: 3}
    - {fileID: 21300000, guid: 500142fc494ec554c8cdce6839a9519d, type: 3}
    - {fileID: 21300000, guid: 0780331d74a5f814c840b5dffe69468c, type: 3}
    - {fileID: 21300000, guid: aa0e89954bd667c4da90fa24f02a08d6, type: 3}
    - {fileID: 21300000, guid: de6c5b9220fbb22458ca450e3e3e905a, type: 3}
    - {fileID: 21300000, guid: 7cedf2030a040724d9172906e7f97522, type: 3}
    - {fileID: 21300000, guid: e66ae25556bd61e43909217a501e3c9d, type: 3}
    - {fileID: 21300000, guid: 3f4452e902324a143956b689c7df9d5e, type: 3}
    - {fileID: 21300000, guid: 881609f6c970c03468b9ad5f0641b173, type: 3}
    - {fileID: 21300000, guid: 6bce913cb8709044b85b121638d8d979, type: 3}
    - {fileID: 21300000, guid: 62cd46eef4290814aba8341f8b99b7de, type: 3}
    - {fileID: 21300000, guid: 4c5deb2dbbb241140939fcf38cf7a32b, type: 3}
    - {fileID: 21300000, guid: 6941e91e4450f474489721bba98b0ac2, type: 3}
    - {fileID: 21300000, guid: 9153576d41a438045a16f94c9073192e, type: 3}
    - {fileID: 21300000, guid: 8d92cf781e60cc243ad528a105d2b78c, type: 3}
    - {fileID: 21300000, guid: 0fea40482f444a8439b0feb9bb30b5c5, type: 3}
    - {fileID: 21300000, guid: c1ef6f0f863e4884db5968c7bf03fde5, type: 3}
    - {fileID: 21300000, guid: ebbcb3135ce07644193480b463c2bdd0, type: 3}
    - {fileID: 21300000, guid: 6d2ab80e560940f47b1f84853a44e856, type: 3}
    - {fileID: 21300000, guid: 0d5454e470aed864499d12460e1feed9, type: 3}
    - {fileID: 21300000, guid: 852f96ff4eced4945bd1611d38fbb748, type: 3}
    - {fileID: 21300000, guid: b2440cf51abebac4a9da646e2833f6d0, type: 3}
    - {fileID: 21300000, guid: 09d4fffd483160e449edd38490cc21b7, type: 3}
    - {fileID: 21300000, guid: f4b0d8ce429c89f4d81a94e2cd8d06b7, type: 3}
    - {fileID: 21300000, guid: 57b9248151759ef408fccc2d7ff2031b, type: 3}
    - {fileID: 21300000, guid: 728989a26e01457469f4f548439fd5b7, type: 3}
    - {fileID: 21300000, guid: b7ab25a9389df5f408065e5cf8188fa3, type: 3}
    - {fileID: 21300000, guid: 4b9452222c8f9664abdb1678c0dcc26e, type: 3}
    - {fileID: 21300000, guid: fba68634d83692a4d94e21b18f99d947, type: 3}
    - {fileID: 21300000, guid: 46618cc3d50a11947a2570df6488fdad, type: 3}
    - {fileID: 21300000, guid: b3ba63097c957474aba3eeb1953eb307, type: 3}
    - {fileID: 21300000, guid: a85734c7172770843bfb9b23530e5f83, type: 3}
  m_AnimationClipSettings:
    serializedVersion: 2
    m_AdditiveReferencePoseClip: {fileID: 0}
    m_AdditiveReferencePoseTime: 0
    m_StartTime: 0
    m_StopTime: 1.6666666
    m_OrientationOffsetY: 0
    m_Level: 0
    m_CycleOffset: 0
    m_HasAdditiveReferencePose: 0
    m_LoopTime: 1
    m_LoopBlend: 0
    m_LoopBlendOrientation: 0
    m_LoopBlendPositionY: 0
    m_LoopBlendPositionXZ: 0
    m_KeepOriginalOrientation: 0
    m_KeepOriginalPositionY: 1
    m_KeepOriginalPositionXZ: 0
    m_HeightFromFeet: 0
    m_Mirror: 0
  m_EditorCurves: []
  m_EulerEditorCurves: []
  m_HasGenericRootTransform: 0
  m_HasMotionFloatCurves: 0
  m_Events: []
