%YAML 1.1
%TAG !u! tag:unity3d.com,2011:
--- !u!74 &7400000
AnimationClip:
  m_ObjectHideFlags: 0
  m_CorrespondingSourceObject: {fileID: 0}
  m_PrefabInstance: {fileID: 0}
  m_PrefabAsset: {fileID: 0}
  m_Name: Death
  serializedVersion: 6
  m_Legacy: 0
  m_Compressed: 0
  m_UseHighQualityCurve: 1
  m_RotationCurves: []
  m_CompressedRotationCurves: []
  m_EulerCurves: []
  m_PositionCurves: []
  m_ScaleCurves: []
  m_FloatCurves: []
  m_PPtrCurves:
  - curve:
    - time: 0
      value: {fileID: 21300000, guid: 5c6669956ef99be4c814696fc42f41b0, type: 3}
    - time: 0.041666668
      value: {fileID: 21300000, guid: 73046911ef765564fb86d26672e2ab85, type: 3}
    - time: 0.083333336
      value: {fileID: 21300000, guid: fe8b070161f4bbf43a5b6ee94d7bb1c6, type: 3}
    - time: 0.125
      value: {fileID: 21300000, guid: b5f6307f5c9495c4296d94d104a04b02, type: 3}
    - time: 0.16666667
      value: {fileID: 21300000, guid: ed85c577c70128e49807a2ef81aee2b5, type: 3}
    - time: 0.20833333
      value: {fileID: 21300000, guid: 713fc4202b7ff304b921fa6c8db1a71c, type: 3}
    - time: 0.25
      value: {fileID: 21300000, guid: 6c16d47872f791844bc7bc98748c390d, type: 3}
    - time: 0.29166666
      value: {fileID: 21300000, guid: 697870f8dd4b31346a40cab2aa11c7ef, type: 3}
    - time: 0.33333334
      value: {fileID: 21300000, guid: 17cbd87ad00b5b44ca4a5dfdb2652841, type: 3}
    - time: 0.375
      value: {fileID: 21300000, guid: fd9a4a3a7b48dac4c8aefa7b94534070, type: 3}
    - time: 0.41666666
      value: {fileID: 21300000, guid: 3c27eba2baaf67442aea163f7c51b4dd, type: 3}
    - time: 0.45833334
      value: {fileID: 21300000, guid: 4394b696c99e77d4798c3b5cec9ccb94, type: 3}
    - time: 0.5
      value: {fileID: 21300000, guid: a497bb7a16785fb4b945d1f4e09a125b, type: 3}
    - time: 0.5416667
      value: {fileID: 21300000, guid: bf5744b6c0376874ba8ea963450bbab9, type: 3}
    - time: 0.5833333
      value: {fileID: 21300000, guid: d5e38b05de42d9b4899589398358656a, type: 3}
    - time: 0.625
      value: {fileID: 21300000, guid: e7e8385616a7ff143a7f08c62228ee26, type: 3}
    - time: 0.6666667
      value: {fileID: 21300000, guid: a6156e82de0cab34a89e780b0771176f, type: 3}
    - time: 0.7083333
      value: {fileID: 21300000, guid: 5c3e5f312222a0346a36bb202d5a8d18, type: 3}
    - time: 0.75
      value: {fileID: 21300000, guid: 1e948d657ab254249aaed60101a6daab, type: 3}
    - time: 0.7916667
      value: {fileID: 21300000, guid: c3a83733c4a384247ba8dc737c7a0fc7, type: 3}
    - time: 0.8333333
      value: {fileID: 21300000, guid: 09176fa21410ee5448b756bdd74b1788, type: 3}
    - time: 0.875
      value: {fileID: 21300000, guid: a7e7abbb7773ef24eb6bb33210c2596e, type: 3}
    - time: 0.9166667
      value: {fileID: 21300000, guid: 3caae83d33be2034fbdf0fc0fc961d00, type: 3}
    - time: 0.9583333
      value: {fileID: 21300000, guid: f816e0cd3b582cb47b0f69523e274e11, type: 3}
    - time: 1
      value: {fileID: 21300000, guid: 8e54b50d363646249bd48926d3aa3def, type: 3}
    - time: 1.0416666
      value: {fileID: 21300000, guid: 40d46fc603e84424da7d1f11a9b87f89, type: 3}
    - time: 1.0833334
      value: {fileID: 21300000, guid: e973b76d06f4fdf40a6c8b5b128198de, type: 3}
    - time: 1.125
      value: {fileID: 21300000, guid: ce42cf197c1cccd43a598cb3951b5b79, type: 3}
    - time: 1.1666666
      value: {fileID: 21300000, guid: ab3146f33cfbe8647abdb8af8a3ccb9c, type: 3}
    - time: 1.2083334
      value: {fileID: 21300000, guid: 321d634c0926158468b55304b1789965, type: 3}
    - time: 1.25
      value: {fileID: 21300000, guid: 7156e684b9c78b146a1b81c7f7455346, type: 3}
    - time: 1.2916666
      value: {fileID: 21300000, guid: 3b7d161128b6e5948bf75715e73f54ad, type: 3}
    - time: 1.3333334
      value: {fileID: 21300000, guid: 2216a3664270b864c80f579799277a68, type: 3}
    - time: 1.375
      value: {fileID: 21300000, guid: 4adc8833f6f20984191bf386adfa7f9e, type: 3}
    - time: 1.4166666
      value: {fileID: 21300000, guid: 84f49640200d8494a829a62de3e12445, type: 3}
    - time: 1.4583334
      value: {fileID: 21300000, guid: 38fc0e4f7f776f24aa57c828cd1ab306, type: 3}
    - time: 1.5
      value: {fileID: 21300000, guid: a5d21ab739bd4124d95ab540d756c325, type: 3}
    - time: 1.5416666
      value: {fileID: 21300000, guid: 1601d4d153f8d434aaa444fdc502d9f1, type: 3}
    - time: 1.5833334
      value: {fileID: 21300000, guid: af90d08ed21209c47a6ea9da1aeecb20, type: 3}
    - time: 1.625
      value: {fileID: 21300000, guid: 71aa7052288bc4e43ad54488fa8a9058, type: 3}
    - time: 1.6666666
      value: {fileID: 21300000, guid: f40d3bc1855f26d489c180beb4a1b6fb, type: 3}
    - time: 1.7083334
      value: {fileID: 21300000, guid: fb350fafde1790d42bfaa8083e0a6a4f, type: 3}
    attribute: m_Sprite
    path: 
    classID: 114
    script: {fileID: -765806418, guid: f70555f144d8491a825f0804e09c671c, type: 3}
  m_SampleRate: 24
  m_WrapMode: 0
  m_Bounds:
    m_Center: {x: 0, y: 0, z: 0}
    m_Extent: {x: 0, y: 0, z: 0}
  m_ClipBindingConstant:
    genericBindings:
    - serializedVersion: 2
      path: 0
      attribute: 2015549526
      script: {fileID: -765806418, guid: f70555f144d8491a825f0804e09c671c, type: 3}
      typeID: 114
      customType: 0
      isPPtrCurve: 1
    pptrCurveMapping:
    - {fileID: 21300000, guid: 5c6669956ef99be4c814696fc42f41b0, type: 3}
    - {fileID: 21300000, guid: 73046911ef765564fb86d26672e2ab85, type: 3}
    - {fileID: 21300000, guid: fe8b070161f4bbf43a5b6ee94d7bb1c6, type: 3}
    - {fileID: 21300000, guid: b5f6307f5c9495c4296d94d104a04b02, type: 3}
    - {fileID: 21300000, guid: ed85c577c70128e49807a2ef81aee2b5, type: 3}
    - {fileID: 21300000, guid: 713fc4202b7ff304b921fa6c8db1a71c, type: 3}
    - {fileID: 21300000, guid: 6c16d47872f791844bc7bc98748c390d, type: 3}
    - {fileID: 21300000, guid: 697870f8dd4b31346a40cab2aa11c7ef, type: 3}
    - {fileID: 21300000, guid: 17cbd87ad00b5b44ca4a5dfdb2652841, type: 3}
    - {fileID: 21300000, guid: fd9a4a3a7b48dac4c8aefa7b94534070, type: 3}
    - {fileID: 21300000, guid: 3c27eba2baaf67442aea163f7c51b4dd, type: 3}
    - {fileID: 21300000, guid: 4394b696c99e77d4798c3b5cec9ccb94, type: 3}
    - {fileID: 21300000, guid: a497bb7a16785fb4b945d1f4e09a125b, type: 3}
    - {fileID: 21300000, guid: bf5744b6c0376874ba8ea963450bbab9, type: 3}
    - {fileID: 21300000, guid: d5e38b05de42d9b4899589398358656a, type: 3}
    - {fileID: 21300000, guid: e7e8385616a7ff143a7f08c62228ee26, type: 3}
    - {fileID: 21300000, guid: a6156e82de0cab34a89e780b0771176f, type: 3}
    - {fileID: 21300000, guid: 5c3e5f312222a0346a36bb202d5a8d18, type: 3}
    - {fileID: 21300000, guid: 1e948d657ab254249aaed60101a6daab, type: 3}
    - {fileID: 21300000, guid: c3a83733c4a384247ba8dc737c7a0fc7, type: 3}
    - {fileID: 21300000, guid: 09176fa21410ee5448b756bdd74b1788, type: 3}
    - {fileID: 21300000, guid: a7e7abbb7773ef24eb6bb33210c2596e, type: 3}
    - {fileID: 21300000, guid: 3caae83d33be2034fbdf0fc0fc961d00, type: 3}
    - {fileID: 21300000, guid: f816e0cd3b582cb47b0f69523e274e11, type: 3}
    - {fileID: 21300000, guid: 8e54b50d363646249bd48926d3aa3def, type: 3}
    - {fileID: 21300000, guid: 40d46fc603e84424da7d1f11a9b87f89, type: 3}
    - {fileID: 21300000, guid: e973b76d06f4fdf40a6c8b5b128198de, type: 3}
    - {fileID: 21300000, guid: ce42cf197c1cccd43a598cb3951b5b79, type: 3}
    - {fileID: 21300000, guid: ab3146f33cfbe8647abdb8af8a3ccb9c, type: 3}
    - {fileID: 21300000, guid: 321d634c0926158468b55304b1789965, type: 3}
    - {fileID: 21300000, guid: 7156e684b9c78b146a1b81c7f7455346, type: 3}
    - {fileID: 21300000, guid: 3b7d161128b6e5948bf75715e73f54ad, type: 3}
    - {fileID: 21300000, guid: 2216a3664270b864c80f579799277a68, type: 3}
    - {fileID: 21300000, guid: 4adc8833f6f20984191bf386adfa7f9e, type: 3}
    - {fileID: 21300000, guid: 84f49640200d8494a829a62de3e12445, type: 3}
    - {fileID: 21300000, guid: 38fc0e4f7f776f24aa57c828cd1ab306, type: 3}
    - {fileID: 21300000, guid: a5d21ab739bd4124d95ab540d756c325, type: 3}
    - {fileID: 21300000, guid: 1601d4d153f8d434aaa444fdc502d9f1, type: 3}
    - {fileID: 21300000, guid: af90d08ed21209c47a6ea9da1aeecb20, type: 3}
    - {fileID: 21300000, guid: 71aa7052288bc4e43ad54488fa8a9058, type: 3}
    - {fileID: 21300000, guid: f40d3bc1855f26d489c180beb4a1b6fb, type: 3}
    - {fileID: 21300000, guid: fb350fafde1790d42bfaa8083e0a6a4f, type: 3}
  m_AnimationClipSettings:
    serializedVersion: 2
    m_AdditiveReferencePoseClip: {fileID: 0}
    m_AdditiveReferencePoseTime: 0
    m_StartTime: 0
    m_StopTime: 1.75
    m_OrientationOffsetY: 0
    m_Level: 0
    m_CycleOffset: 0
    m_HasAdditiveReferencePose: 0
    m_LoopTime: 0
    m_LoopBlend: 0
    m_LoopBlendOrientation: 0
    m_LoopBlendPositionY: 0
    m_LoopBlendPositionXZ: 0
    m_KeepOriginalOrientation: 0
    m_KeepOriginalPositionY: 1
    m_KeepOriginalPositionXZ: 0
    m_HeightFromFeet: 0
    m_Mirror: 0
  m_EditorCurves: []
  m_EulerEditorCurves: []
  m_HasGenericRootTransform: 0
  m_HasMotionFloatCurves: 0
  m_Events: []
