%YAML 1.1
%TAG !u! tag:unity3d.com,2011:
--- !u!74 &7400000
AnimationClip:
  m_ObjectHideFlags: 0
  m_CorrespondingSourceObject: {fileID: 0}
  m_PrefabInstance: {fileID: 0}
  m_PrefabAsset: {fileID: 0}
  m_Name: BossDeathIdle
  serializedVersion: 6
  m_Legacy: 0
  m_Compressed: 0
  m_UseHighQualityCurve: 1
  m_RotationCurves: []
  m_CompressedRotationCurves: []
  m_EulerCurves: []
  m_PositionCurves: []
  m_ScaleCurves: []
  m_FloatCurves: []
  m_PPtrCurves:
  - curve:
    - time: 0
      value: {fileID: 21300000, guid: e47f71f084fe7e24e90a6df855221341, type: 3}
    - time: 0.041666668
      value: {fileID: 21300000, guid: 8c79f2248a821e741b66f6b2eb0d8c85, type: 3}
    - time: 0.083333336
      value: {fileID: 21300000, guid: a1833ec6e518fdc47901942491451819, type: 3}
    - time: 0.125
      value: {fileID: 21300000, guid: bcb52f9091ef89a42bec6cc8df625983, type: 3}
    - time: 0.16666667
      value: {fileID: 21300000, guid: 8c40e901b6a343140b63c7f29852a724, type: 3}
    - time: 0.20833333
      value: {fileID: 21300000, guid: 12ff5398426a7404c9ca9ab6cd7ae6aa, type: 3}
    - time: 0.25
      value: {fileID: 21300000, guid: c8935bd452347914485346816514e7f3, type: 3}
    - time: 0.29166666
      value: {fileID: 21300000, guid: 9fbc102fe025bc14a987ee9c87ebff48, type: 3}
    - time: 0.33333334
      value: {fileID: 21300000, guid: 0c6f5bd546d2fbf49919d38a49a0f92b, type: 3}
    - time: 0.375
      value: {fileID: 21300000, guid: a5b6d1de4dc67f94f92412b365aa388c, type: 3}
    - time: 0.41666666
      value: {fileID: 21300000, guid: fe7e723efadb6ac49951cf2038a4695b, type: 3}
    - time: 0.45833334
      value: {fileID: 21300000, guid: c84fe4aa1567d7b41a4ac62fc4098ce1, type: 3}
    - time: 0.5
      value: {fileID: 21300000, guid: 015128d5cd2faa946bc8d4f4add7c003, type: 3}
    - time: 0.5416667
      value: {fileID: 21300000, guid: dd417ee3215d93240b46c2fc55360438, type: 3}
    - time: 0.5833333
      value: {fileID: 21300000, guid: 15bb82be78d09c84b8dcf543f786f20c, type: 3}
    - time: 0.625
      value: {fileID: 21300000, guid: d76207acdd19a2b4a8c9e5f07dea3b70, type: 3}
    - time: 0.6666667
      value: {fileID: 21300000, guid: d4393398cf7d6de41807080bb235ff89, type: 3}
    - time: 0.7083333
      value: {fileID: 21300000, guid: 9707dccf450008b4bb30218f5a035e58, type: 3}
    - time: 0.75
      value: {fileID: 21300000, guid: 77f7639ce01439b479c620249fbb2d9c, type: 3}
    - time: 0.7916667
      value: {fileID: 21300000, guid: c4ab3da56e463f8479cbca4c526b0d61, type: 3}
    - time: 0.8333333
      value: {fileID: 21300000, guid: 85b52e99090c0ee489c1327d0b4a5bba, type: 3}
    - time: 0.875
      value: {fileID: 21300000, guid: a8b90e3143255dc4991e7ad105711001, type: 3}
    - time: 0.9166667
      value: {fileID: 21300000, guid: c9c9888c124ddfe4f87a873fdde2571b, type: 3}
    - time: 0.9583333
      value: {fileID: 21300000, guid: 797dadfde9769a6488f4e50dd92a62f5, type: 3}
    - time: 1
      value: {fileID: 21300000, guid: 2d79f13e185fcdb489f08b0e2f6f8149, type: 3}
    - time: 1.0416666
      value: {fileID: 21300000, guid: 98706461acb5cb941a9574225a66b36e, type: 3}
    - time: 1.0833334
      value: {fileID: 21300000, guid: 70e62d6e5928ad841b0d9b9e447bd306, type: 3}
    - time: 1.125
      value: {fileID: 21300000, guid: 93945dc03f68e1242b23f3a5b1d39fdf, type: 3}
    - time: 1.1666666
      value: {fileID: 21300000, guid: 1747ba32489dbb141989ee90ba3a2816, type: 3}
    - time: 1.2083334
      value: {fileID: 21300000, guid: 6edc8c180e4a9324f896ef2d1f38bbac, type: 3}
    - time: 1.25
      value: {fileID: 21300000, guid: 1aaa3a05a5736924db75c61b9df8997c, type: 3}
    - time: 1.2916666
      value: {fileID: 21300000, guid: 78d2f0c4b494c434898e7f49ad59ebda, type: 3}
    - time: 1.3333334
      value: {fileID: 21300000, guid: e9e9bd47926e03a48a2244566a79081e, type: 3}
    - time: 1.375
      value: {fileID: 21300000, guid: 2676af14512061d429f8ee40724c8764, type: 3}
    - time: 1.4166666
      value: {fileID: 21300000, guid: 355e7b21373bd3d4dbf75d93c4e416eb, type: 3}
    - time: 1.4583334
      value: {fileID: 21300000, guid: 8f86b71e86fc5c64b87204ba28dc1452, type: 3}
    - time: 1.5
      value: {fileID: 21300000, guid: 3f2615e98af899a4ebd849c91e0eed87, type: 3}
    - time: 1.5416666
      value: {fileID: 21300000, guid: 43cf2fd68ec42ee458962193025c8f87, type: 3}
    - time: 1.5833334
      value: {fileID: 21300000, guid: bf0ba971d116d214fa1147fddddf5343, type: 3}
    - time: 1.625
      value: {fileID: 21300000, guid: a59eb332079ae2a468d0fc2bca92d481, type: 3}
    attribute: m_Sprite
    path: 
    classID: 114
    script: {fileID: -765806418, guid: f70555f144d8491a825f0804e09c671c, type: 3}
  m_SampleRate: 24
  m_WrapMode: 0
  m_Bounds:
    m_Center: {x: 0, y: 0, z: 0}
    m_Extent: {x: 0, y: 0, z: 0}
  m_ClipBindingConstant:
    genericBindings:
    - serializedVersion: 2
      path: 0
      attribute: 2015549526
      script: {fileID: -765806418, guid: f70555f144d8491a825f0804e09c671c, type: 3}
      typeID: 114
      customType: 0
      isPPtrCurve: 1
    pptrCurveMapping:
    - {fileID: 21300000, guid: e47f71f084fe7e24e90a6df855221341, type: 3}
    - {fileID: 21300000, guid: 8c79f2248a821e741b66f6b2eb0d8c85, type: 3}
    - {fileID: 21300000, guid: a1833ec6e518fdc47901942491451819, type: 3}
    - {fileID: 21300000, guid: bcb52f9091ef89a42bec6cc8df625983, type: 3}
    - {fileID: 21300000, guid: 8c40e901b6a343140b63c7f29852a724, type: 3}
    - {fileID: 21300000, guid: 12ff5398426a7404c9ca9ab6cd7ae6aa, type: 3}
    - {fileID: 21300000, guid: c8935bd452347914485346816514e7f3, type: 3}
    - {fileID: 21300000, guid: 9fbc102fe025bc14a987ee9c87ebff48, type: 3}
    - {fileID: 21300000, guid: 0c6f5bd546d2fbf49919d38a49a0f92b, type: 3}
    - {fileID: 21300000, guid: a5b6d1de4dc67f94f92412b365aa388c, type: 3}
    - {fileID: 21300000, guid: fe7e723efadb6ac49951cf2038a4695b, type: 3}
    - {fileID: 21300000, guid: c84fe4aa1567d7b41a4ac62fc4098ce1, type: 3}
    - {fileID: 21300000, guid: 015128d5cd2faa946bc8d4f4add7c003, type: 3}
    - {fileID: 21300000, guid: dd417ee3215d93240b46c2fc55360438, type: 3}
    - {fileID: 21300000, guid: 15bb82be78d09c84b8dcf543f786f20c, type: 3}
    - {fileID: 21300000, guid: d76207acdd19a2b4a8c9e5f07dea3b70, type: 3}
    - {fileID: 21300000, guid: d4393398cf7d6de41807080bb235ff89, type: 3}
    - {fileID: 21300000, guid: 9707dccf450008b4bb30218f5a035e58, type: 3}
    - {fileID: 21300000, guid: 77f7639ce01439b479c620249fbb2d9c, type: 3}
    - {fileID: 21300000, guid: c4ab3da56e463f8479cbca4c526b0d61, type: 3}
    - {fileID: 21300000, guid: 85b52e99090c0ee489c1327d0b4a5bba, type: 3}
    - {fileID: 21300000, guid: a8b90e3143255dc4991e7ad105711001, type: 3}
    - {fileID: 21300000, guid: c9c9888c124ddfe4f87a873fdde2571b, type: 3}
    - {fileID: 21300000, guid: 797dadfde9769a6488f4e50dd92a62f5, type: 3}
    - {fileID: 21300000, guid: 2d79f13e185fcdb489f08b0e2f6f8149, type: 3}
    - {fileID: 21300000, guid: 98706461acb5cb941a9574225a66b36e, type: 3}
    - {fileID: 21300000, guid: 70e62d6e5928ad841b0d9b9e447bd306, type: 3}
    - {fileID: 21300000, guid: 93945dc03f68e1242b23f3a5b1d39fdf, type: 3}
    - {fileID: 21300000, guid: 1747ba32489dbb141989ee90ba3a2816, type: 3}
    - {fileID: 21300000, guid: 6edc8c180e4a9324f896ef2d1f38bbac, type: 3}
    - {fileID: 21300000, guid: 1aaa3a05a5736924db75c61b9df8997c, type: 3}
    - {fileID: 21300000, guid: 78d2f0c4b494c434898e7f49ad59ebda, type: 3}
    - {fileID: 21300000, guid: e9e9bd47926e03a48a2244566a79081e, type: 3}
    - {fileID: 21300000, guid: 2676af14512061d429f8ee40724c8764, type: 3}
    - {fileID: 21300000, guid: 355e7b21373bd3d4dbf75d93c4e416eb, type: 3}
    - {fileID: 21300000, guid: 8f86b71e86fc5c64b87204ba28dc1452, type: 3}
    - {fileID: 21300000, guid: 3f2615e98af899a4ebd849c91e0eed87, type: 3}
    - {fileID: 21300000, guid: 43cf2fd68ec42ee458962193025c8f87, type: 3}
    - {fileID: 21300000, guid: bf0ba971d116d214fa1147fddddf5343, type: 3}
    - {fileID: 21300000, guid: a59eb332079ae2a468d0fc2bca92d481, type: 3}
  m_AnimationClipSettings:
    serializedVersion: 2
    m_AdditiveReferencePoseClip: {fileID: 0}
    m_AdditiveReferencePoseTime: 0
    m_StartTime: 0
    m_StopTime: 1.6666666
    m_OrientationOffsetY: 0
    m_Level: 0
    m_CycleOffset: 0
    m_HasAdditiveReferencePose: 0
    m_LoopTime: 1
    m_LoopBlend: 0
    m_LoopBlendOrientation: 0
    m_LoopBlendPositionY: 0
    m_LoopBlendPositionXZ: 0
    m_KeepOriginalOrientation: 0
    m_KeepOriginalPositionY: 1
    m_KeepOriginalPositionXZ: 0
    m_HeightFromFeet: 0
    m_Mirror: 0
  m_EditorCurves: []
  m_EulerEditorCurves: []
  m_HasGenericRootTransform: 0
  m_HasMotionFloatCurves: 0
  m_Events: []
