%YAML 1.1
%TAG !u! tag:unity3d.com,2011:
--- !u!74 &7400000
AnimationClip:
  m_ObjectHideFlags: 0
  m_CorrespondingSourceObject: {fileID: 0}
  m_PrefabInstance: {fileID: 0}
  m_PrefabAsset: {fileID: 0}
  m_Name: Cast
  serializedVersion: 6
  m_Legacy: 0
  m_Compressed: 0
  m_UseHighQualityCurve: 1
  m_RotationCurves: []
  m_CompressedRotationCurves: []
  m_EulerCurves: []
  m_PositionCurves: []
  m_ScaleCurves: []
  m_FloatCurves: []
  m_PPtrCurves:
  - curve:
    - time: 0
      value: {fileID: 21300000, guid: 848a973ab770a2845b59c964c3f772d5, type: 3}
    - time: 0.041666668
      value: {fileID: 21300000, guid: 46f32f27a74d1e9429dacce50b34d807, type: 3}
    - time: 0.083333336
      value: {fileID: 21300000, guid: 254252bf26bd8344bbca27d6134177cb, type: 3}
    - time: 0.125
      value: {fileID: 21300000, guid: 3b49cdd9fffda4741aaa3e7e2f659997, type: 3}
    - time: 0.16666667
      value: {fileID: 21300000, guid: 1ca13f81b3520bd42a8f99f7de2ac382, type: 3}
    - time: 0.20833333
      value: {fileID: 21300000, guid: ec892ce6f44b116478be972084c1e1d8, type: 3}
    - time: 0.25
      value: {fileID: 21300000, guid: b5109682768b8c8479ed408c6ac4c84d, type: 3}
    - time: 0.29166666
      value: {fileID: 21300000, guid: 7cf627aed33bc2f49893b310f42e69ed, type: 3}
    - time: 0.33333334
      value: {fileID: 21300000, guid: 655af94b025085046897449ec20525c1, type: 3}
    - time: 0.375
      value: {fileID: 21300000, guid: 39bbf9f3cd212704a8b4d489c29c2277, type: 3}
    - time: 0.41666666
      value: {fileID: 21300000, guid: 628e000dd88646344aabcb53c130db6d, type: 3}
    - time: 0.45833334
      value: {fileID: 21300000, guid: c5993d6205fbc5944917ac9be1591c69, type: 3}
    - time: 0.5
      value: {fileID: 21300000, guid: 2ba69da6612c4d84e9c6f2070ea3c2ac, type: 3}
    - time: 0.5416667
      value: {fileID: 21300000, guid: 9454f3c041a78a2438b66138e1620912, type: 3}
    - time: 0.5833333
      value: {fileID: 21300000, guid: f02645b73177a4947a9ddeddbc177b8a, type: 3}
    attribute: m_Sprite
    path: 
    classID: 114
    script: {fileID: -765806418, guid: f70555f144d8491a825f0804e09c671c, type: 3}
  m_SampleRate: 24
  m_WrapMode: 0
  m_Bounds:
    m_Center: {x: 0, y: 0, z: 0}
    m_Extent: {x: 0, y: 0, z: 0}
  m_ClipBindingConstant:
    genericBindings:
    - serializedVersion: 2
      path: 0
      attribute: 2015549526
      script: {fileID: -765806418, guid: f70555f144d8491a825f0804e09c671c, type: 3}
      typeID: 114
      customType: 0
      isPPtrCurve: 1
    pptrCurveMapping:
    - {fileID: 21300000, guid: 848a973ab770a2845b59c964c3f772d5, type: 3}
    - {fileID: 21300000, guid: 46f32f27a74d1e9429dacce50b34d807, type: 3}
    - {fileID: 21300000, guid: 254252bf26bd8344bbca27d6134177cb, type: 3}
    - {fileID: 21300000, guid: 3b49cdd9fffda4741aaa3e7e2f659997, type: 3}
    - {fileID: 21300000, guid: 1ca13f81b3520bd42a8f99f7de2ac382, type: 3}
    - {fileID: 21300000, guid: ec892ce6f44b116478be972084c1e1d8, type: 3}
    - {fileID: 21300000, guid: b5109682768b8c8479ed408c6ac4c84d, type: 3}
    - {fileID: 21300000, guid: 7cf627aed33bc2f49893b310f42e69ed, type: 3}
    - {fileID: 21300000, guid: 655af94b025085046897449ec20525c1, type: 3}
    - {fileID: 21300000, guid: 39bbf9f3cd212704a8b4d489c29c2277, type: 3}
    - {fileID: 21300000, guid: 628e000dd88646344aabcb53c130db6d, type: 3}
    - {fileID: 21300000, guid: c5993d6205fbc5944917ac9be1591c69, type: 3}
    - {fileID: 21300000, guid: 2ba69da6612c4d84e9c6f2070ea3c2ac, type: 3}
    - {fileID: 21300000, guid: 9454f3c041a78a2438b66138e1620912, type: 3}
    - {fileID: 21300000, guid: f02645b73177a4947a9ddeddbc177b8a, type: 3}
  m_AnimationClipSettings:
    serializedVersion: 2
    m_AdditiveReferencePoseClip: {fileID: 0}
    m_AdditiveReferencePoseTime: 0
    m_StartTime: 0
    m_StopTime: 0.625
    m_OrientationOffsetY: 0
    m_Level: 0
    m_CycleOffset: 0
    m_HasAdditiveReferencePose: 0
    m_LoopTime: 1
    m_LoopBlend: 0
    m_LoopBlendOrientation: 0
    m_LoopBlendPositionY: 0
    m_LoopBlendPositionXZ: 0
    m_KeepOriginalOrientation: 0
    m_KeepOriginalPositionY: 1
    m_KeepOriginalPositionXZ: 0
    m_HeightFromFeet: 0
    m_Mirror: 0
  m_EditorCurves: []
  m_EulerEditorCurves: []
  m_HasGenericRootTransform: 0
  m_HasMotionFloatCurves: 0
  m_Events: []
