%YAML 1.1
%TAG !u! tag:unity3d.com,2011:
--- !u!74 &7400000
AnimationClip:
  m_ObjectHideFlags: 0
  m_CorrespondingSourceObject: {fileID: 0}
  m_PrefabInstance: {fileID: 0}
  m_PrefabAsset: {fileID: 0}
  m_Name: Death
  serializedVersion: 6
  m_Legacy: 0
  m_Compressed: 0
  m_UseHighQualityCurve: 1
  m_RotationCurves: []
  m_CompressedRotationCurves: []
  m_EulerCurves: []
  m_PositionCurves: []
  m_ScaleCurves: []
  m_FloatCurves: []
  m_PPtrCurves:
  - curve:
    - time: 0
      value: {fileID: 21300000, guid: 5732064ac0f53674c908cf9cfb91e09f, type: 3}
    - time: 0.041666668
      value: {fileID: 21300000, guid: ca0cc36881727c640aeadee9d9792748, type: 3}
    - time: 0.083333336
      value: {fileID: 21300000, guid: 4bc68b21eeabc804e85774b7328d25a1, type: 3}
    - time: 0.125
      value: {fileID: 21300000, guid: 8bb7d8708007ddd46af82821f26f063d, type: 3}
    - time: 0.16666667
      value: {fileID: 21300000, guid: 342a7f96af375db43a0831f70ec82e6d, type: 3}
    - time: 0.20833333
      value: {fileID: 21300000, guid: 8bc6c453524cf4f4ba7e6aeb13f58d04, type: 3}
    - time: 0.25
      value: {fileID: 21300000, guid: 5a433f0c585c4324e9d4cd67f538ce19, type: 3}
    - time: 0.29166666
      value: {fileID: 21300000, guid: 8dd57097484833f43baceb5d92bd52da, type: 3}
    - time: 0.33333334
      value: {fileID: 21300000, guid: 8ae584fcb24160548a036bf85d1b6561, type: 3}
    - time: 0.375
      value: {fileID: 21300000, guid: bdc2554c99c0cde4889d3aa5a2b88f5a, type: 3}
    - time: 0.41666666
      value: {fileID: 21300000, guid: adf2ad6d5c5281940b8ad1709fa4b6d8, type: 3}
    - time: 0.45833334
      value: {fileID: 21300000, guid: 7d71e214624e0444596c414ed3e1123e, type: 3}
    - time: 0.5
      value: {fileID: 21300000, guid: 928370fa16ef53e48b29bef05038b1fa, type: 3}
    - time: 0.5416667
      value: {fileID: 21300000, guid: e361ee839a8d1474fab8a241544f2ed2, type: 3}
    - time: 0.5833333
      value: {fileID: 21300000, guid: 4877a0927317ff8428fe759c0fafda40, type: 3}
    - time: 0.625
      value: {fileID: 21300000, guid: a69da3b78bbf5fe4ba3d066c71a4d64a, type: 3}
    - time: 0.6666667
      value: {fileID: 21300000, guid: 4f4a424ed89adb34fb9ebeaba346b9d3, type: 3}
    - time: 0.7083333
      value: {fileID: 21300000, guid: d0dca2511f9d21540bb7abd835a49e91, type: 3}
    - time: 0.75
      value: {fileID: 21300000, guid: 4ef140d68e41d3b4fb2b454197298120, type: 3}
    - time: 0.7916667
      value: {fileID: 21300000, guid: c21e0c2298c8f4e4eb4f299dd7803221, type: 3}
    - time: 0.8333333
      value: {fileID: 21300000, guid: a94e72fb131a9b749b29527b007fc94d, type: 3}
    - time: 0.875
      value: {fileID: 21300000, guid: 5f55b96c89ab33746ade1d18856c2f10, type: 3}
    - time: 0.9166667
      value: {fileID: 21300000, guid: 479bd0af23c23f548b60b31b62f5b359, type: 3}
    - time: 0.9583333
      value: {fileID: 21300000, guid: 550c6e2f751b9054f885a22cdd47dc84, type: 3}
    - time: 1
      value: {fileID: 21300000, guid: 470923f8c413ec644b936f5423738759, type: 3}
    - time: 1.0416666
      value: {fileID: 21300000, guid: 950d19248e0bf534980315845e1cbd0c, type: 3}
    - time: 1.0833334
      value: {fileID: 21300000, guid: c0579809f94f1244597c84a6a9b7dd77, type: 3}
    - time: 1.125
      value: {fileID: 21300000, guid: 1940751803e14ad4fbefea9bda20947a, type: 3}
    - time: 1.1666666
      value: {fileID: 21300000, guid: 5dac33b87a37b0e4a931142ba96b6c7c, type: 3}
    - time: 1.2083334
      value: {fileID: 21300000, guid: 01ae263061e207547bf92298cee9ed74, type: 3}
    - time: 1.25
      value: {fileID: 21300000, guid: a0887b8fbf7e17441a68703ee9da6413, type: 3}
    - time: 1.2916666
      value: {fileID: 21300000, guid: 4fcf0424dfbf03045a88de7804282428, type: 3}
    - time: 1.3333334
      value: {fileID: 21300000, guid: d34849eeee7c40c4cb0c8232d80eb570, type: 3}
    - time: 1.375
      value: {fileID: 21300000, guid: 2fd02d160cdb58d4785c20fb9e3d99d0, type: 3}
    - time: 1.4166666
      value: {fileID: 21300000, guid: f14fb58b2fc9d2d45b83f974936a3072, type: 3}
    - time: 1.4583334
      value: {fileID: 21300000, guid: 1243fc490f7b0144c9fc9c5764d887ae, type: 3}
    - time: 1.5
      value: {fileID: 21300000, guid: d87adfe6103ac074dbe0f2a6cc441a88, type: 3}
    - time: 1.5416666
      value: {fileID: 21300000, guid: f7ff5300a74b7f5418f65571c9f48769, type: 3}
    - time: 1.5833334
      value: {fileID: 21300000, guid: 8ed8d27aab3b15e49813f345bdb4f1d1, type: 3}
    - time: 1.625
      value: {fileID: 21300000, guid: 5b225063d7cbcdc4c833d4f883ab190a, type: 3}
    - time: 1.6666666
      value: {fileID: 21300000, guid: ebfb221b00ed5024aa6b5379da6e7c19, type: 3}
    - time: 1.7083334
      value: {fileID: 21300000, guid: d8df784a3c3000648889883f587bfde7, type: 3}
    attribute: m_Sprite
    path: 
    classID: 114
    script: {fileID: -765806418, guid: f70555f144d8491a825f0804e09c671c, type: 3}
  m_SampleRate: 24
  m_WrapMode: 0
  m_Bounds:
    m_Center: {x: 0, y: 0, z: 0}
    m_Extent: {x: 0, y: 0, z: 0}
  m_ClipBindingConstant:
    genericBindings:
    - serializedVersion: 2
      path: 0
      attribute: 2015549526
      script: {fileID: -765806418, guid: f70555f144d8491a825f0804e09c671c, type: 3}
      typeID: 114
      customType: 0
      isPPtrCurve: 1
    pptrCurveMapping:
    - {fileID: 21300000, guid: 5732064ac0f53674c908cf9cfb91e09f, type: 3}
    - {fileID: 21300000, guid: ca0cc36881727c640aeadee9d9792748, type: 3}
    - {fileID: 21300000, guid: 4bc68b21eeabc804e85774b7328d25a1, type: 3}
    - {fileID: 21300000, guid: 8bb7d8708007ddd46af82821f26f063d, type: 3}
    - {fileID: 21300000, guid: 342a7f96af375db43a0831f70ec82e6d, type: 3}
    - {fileID: 21300000, guid: 8bc6c453524cf4f4ba7e6aeb13f58d04, type: 3}
    - {fileID: 21300000, guid: 5a433f0c585c4324e9d4cd67f538ce19, type: 3}
    - {fileID: 21300000, guid: 8dd57097484833f43baceb5d92bd52da, type: 3}
    - {fileID: 21300000, guid: 8ae584fcb24160548a036bf85d1b6561, type: 3}
    - {fileID: 21300000, guid: bdc2554c99c0cde4889d3aa5a2b88f5a, type: 3}
    - {fileID: 21300000, guid: adf2ad6d5c5281940b8ad1709fa4b6d8, type: 3}
    - {fileID: 21300000, guid: 7d71e214624e0444596c414ed3e1123e, type: 3}
    - {fileID: 21300000, guid: 928370fa16ef53e48b29bef05038b1fa, type: 3}
    - {fileID: 21300000, guid: e361ee839a8d1474fab8a241544f2ed2, type: 3}
    - {fileID: 21300000, guid: 4877a0927317ff8428fe759c0fafda40, type: 3}
    - {fileID: 21300000, guid: a69da3b78bbf5fe4ba3d066c71a4d64a, type: 3}
    - {fileID: 21300000, guid: 4f4a424ed89adb34fb9ebeaba346b9d3, type: 3}
    - {fileID: 21300000, guid: d0dca2511f9d21540bb7abd835a49e91, type: 3}
    - {fileID: 21300000, guid: 4ef140d68e41d3b4fb2b454197298120, type: 3}
    - {fileID: 21300000, guid: c21e0c2298c8f4e4eb4f299dd7803221, type: 3}
    - {fileID: 21300000, guid: a94e72fb131a9b749b29527b007fc94d, type: 3}
    - {fileID: 21300000, guid: 5f55b96c89ab33746ade1d18856c2f10, type: 3}
    - {fileID: 21300000, guid: 479bd0af23c23f548b60b31b62f5b359, type: 3}
    - {fileID: 21300000, guid: 550c6e2f751b9054f885a22cdd47dc84, type: 3}
    - {fileID: 21300000, guid: 470923f8c413ec644b936f5423738759, type: 3}
    - {fileID: 21300000, guid: 950d19248e0bf534980315845e1cbd0c, type: 3}
    - {fileID: 21300000, guid: c0579809f94f1244597c84a6a9b7dd77, type: 3}
    - {fileID: 21300000, guid: 1940751803e14ad4fbefea9bda20947a, type: 3}
    - {fileID: 21300000, guid: 5dac33b87a37b0e4a931142ba96b6c7c, type: 3}
    - {fileID: 21300000, guid: 01ae263061e207547bf92298cee9ed74, type: 3}
    - {fileID: 21300000, guid: a0887b8fbf7e17441a68703ee9da6413, type: 3}
    - {fileID: 21300000, guid: 4fcf0424dfbf03045a88de7804282428, type: 3}
    - {fileID: 21300000, guid: d34849eeee7c40c4cb0c8232d80eb570, type: 3}
    - {fileID: 21300000, guid: 2fd02d160cdb58d4785c20fb9e3d99d0, type: 3}
    - {fileID: 21300000, guid: f14fb58b2fc9d2d45b83f974936a3072, type: 3}
    - {fileID: 21300000, guid: 1243fc490f7b0144c9fc9c5764d887ae, type: 3}
    - {fileID: 21300000, guid: d87adfe6103ac074dbe0f2a6cc441a88, type: 3}
    - {fileID: 21300000, guid: f7ff5300a74b7f5418f65571c9f48769, type: 3}
    - {fileID: 21300000, guid: 8ed8d27aab3b15e49813f345bdb4f1d1, type: 3}
    - {fileID: 21300000, guid: 5b225063d7cbcdc4c833d4f883ab190a, type: 3}
    - {fileID: 21300000, guid: ebfb221b00ed5024aa6b5379da6e7c19, type: 3}
    - {fileID: 21300000, guid: d8df784a3c3000648889883f587bfde7, type: 3}
  m_AnimationClipSettings:
    serializedVersion: 2
    m_AdditiveReferencePoseClip: {fileID: 0}
    m_AdditiveReferencePoseTime: 0
    m_StartTime: 0
    m_StopTime: 1.75
    m_OrientationOffsetY: 0
    m_Level: 0
    m_CycleOffset: 0
    m_HasAdditiveReferencePose: 0
    m_LoopTime: 0
    m_LoopBlend: 0
    m_LoopBlendOrientation: 0
    m_LoopBlendPositionY: 0
    m_LoopBlendPositionXZ: 0
    m_KeepOriginalOrientation: 0
    m_KeepOriginalPositionY: 1
    m_KeepOriginalPositionXZ: 0
    m_HeightFromFeet: 0
    m_Mirror: 0
  m_EditorCurves: []
  m_EulerEditorCurves: []
  m_HasGenericRootTransform: 0
  m_HasMotionFloatCurves: 0
  m_Events: []
