%YAML 1.1
%TAG !u! tag:unity3d.com,2011:
--- !u!74 &7400000
AnimationClip:
  m_ObjectHideFlags: 0
  m_CorrespondingSourceObject: {fileID: 0}
  m_PrefabInstance: {fileID: 0}
  m_PrefabAsset: {fileID: 0}
  m_Name: Walk
  serializedVersion: 6
  m_Legacy: 0
  m_Compressed: 0
  m_UseHighQualityCurve: 1
  m_RotationCurves: []
  m_CompressedRotationCurves: []
  m_EulerCurves: []
  m_PositionCurves: []
  m_ScaleCurves: []
  m_FloatCurves: []
  m_PPtrCurves:
  - curve:
    - time: 0
      value: {fileID: 21300000, guid: ab2bf00f6066b3a4ab952bf63a8a9a94, type: 3}
    - time: 0.041666668
      value: {fileID: 21300000, guid: 440efd354262f0c469bbfa6149d3ad30, type: 3}
    - time: 0.083333336
      value: {fileID: 21300000, guid: 35ee703f2619d2c4e8681f6c73cf55f8, type: 3}
    - time: 0.125
      value: {fileID: 21300000, guid: 2a3d95cf229f8544fbc52e962a178057, type: 3}
    - time: 0.16666667
      value: {fileID: 21300000, guid: 6b195e99dc509274b96147f0dae8a9d2, type: 3}
    - time: 0.20833333
      value: {fileID: 21300000, guid: 1d85cf699ae9dc14dbff180c853bc658, type: 3}
    - time: 0.25
      value: {fileID: 21300000, guid: a505789c49100814aaf50ee3b0b1d1ba, type: 3}
    - time: 0.29166666
      value: {fileID: 21300000, guid: d16dd00c10875d54395e3e2e692f831c, type: 3}
    - time: 0.33333334
      value: {fileID: 21300000, guid: 15eb8e747abcf3b4dbc43d3650afb99a, type: 3}
    - time: 0.375
      value: {fileID: 21300000, guid: 300af645463f35f4b88f31455dcb93f0, type: 3}
    - time: 0.41666666
      value: {fileID: 21300000, guid: 7f552548d449ba84eb629686fc343701, type: 3}
    - time: 0.45833334
      value: {fileID: 21300000, guid: e6f4d95617b259e45beb273bbbae0372, type: 3}
    - time: 0.5
      value: {fileID: 21300000, guid: ceb8ab594891d364db5ab5dc4257978c, type: 3}
    - time: 0.5416667
      value: {fileID: 21300000, guid: 4550f2d6e4ea6294ebf77d4cae55cf6f, type: 3}
    - time: 0.5833333
      value: {fileID: 21300000, guid: ca5fdc538227b6644af6ad84e495e04a, type: 3}
    - time: 0.625
      value: {fileID: 21300000, guid: 693550497e15e4b4ba1ec1abcb1b30bd, type: 3}
    - time: 0.6666667
      value: {fileID: 21300000, guid: 49d3b8a13be936a428b1f3dc3b2f5e65, type: 3}
    - time: 0.7083333
      value: {fileID: 21300000, guid: 8278711073361af428b8656dfe940462, type: 3}
    - time: 0.75
      value: {fileID: 21300000, guid: 449387c3a12b4d44cbfaa4b8060e167f, type: 3}
    - time: 0.7916667
      value: {fileID: 21300000, guid: 7cf6fefe801f0984da93fcda7e55aa6e, type: 3}
    - time: 0.8333333
      value: {fileID: 21300000, guid: 8217ad2211d0c0b44b65d4884594714c, type: 3}
    - time: 0.875
      value: {fileID: 21300000, guid: 9f35fd28fb896e4499b3ef2ea18f2446, type: 3}
    - time: 0.9166667
      value: {fileID: 21300000, guid: 2eaacf1a3cf4f9243b3dd3e00f248166, type: 3}
    - time: 0.9583333
      value: {fileID: 21300000, guid: ced4bcf39bd6e5243ba73a914912d682, type: 3}
    - time: 1
      value: {fileID: 21300000, guid: 9ff74e29ee9da744197b0e628a1da4ee, type: 3}
    - time: 1.0416666
      value: {fileID: 21300000, guid: 1432afe1759ffd6429d6ffb979a80b71, type: 3}
    - time: 1.0833334
      value: {fileID: 21300000, guid: fca5aa6a0f0588841897d6dee0eeb6ac, type: 3}
    - time: 1.125
      value: {fileID: 21300000, guid: 7ff3d87f09c064548b2aad8c6d62acf8, type: 3}
    attribute: m_Sprite
    path: 
    classID: 114
    script: {fileID: -765806418, guid: f70555f144d8491a825f0804e09c671c, type: 3}
  m_SampleRate: 24
  m_WrapMode: 0
  m_Bounds:
    m_Center: {x: 0, y: 0, z: 0}
    m_Extent: {x: 0, y: 0, z: 0}
  m_ClipBindingConstant:
    genericBindings:
    - serializedVersion: 2
      path: 0
      attribute: 2015549526
      script: {fileID: -765806418, guid: f70555f144d8491a825f0804e09c671c, type: 3}
      typeID: 114
      customType: 0
      isPPtrCurve: 1
    pptrCurveMapping:
    - {fileID: 21300000, guid: ab2bf00f6066b3a4ab952bf63a8a9a94, type: 3}
    - {fileID: 21300000, guid: 440efd354262f0c469bbfa6149d3ad30, type: 3}
    - {fileID: 21300000, guid: 35ee703f2619d2c4e8681f6c73cf55f8, type: 3}
    - {fileID: 21300000, guid: 2a3d95cf229f8544fbc52e962a178057, type: 3}
    - {fileID: 21300000, guid: 6b195e99dc509274b96147f0dae8a9d2, type: 3}
    - {fileID: 21300000, guid: 1d85cf699ae9dc14dbff180c853bc658, type: 3}
    - {fileID: 21300000, guid: a505789c49100814aaf50ee3b0b1d1ba, type: 3}
    - {fileID: 21300000, guid: d16dd00c10875d54395e3e2e692f831c, type: 3}
    - {fileID: 21300000, guid: 15eb8e747abcf3b4dbc43d3650afb99a, type: 3}
    - {fileID: 21300000, guid: 300af645463f35f4b88f31455dcb93f0, type: 3}
    - {fileID: 21300000, guid: 7f552548d449ba84eb629686fc343701, type: 3}
    - {fileID: 21300000, guid: e6f4d95617b259e45beb273bbbae0372, type: 3}
    - {fileID: 21300000, guid: ceb8ab594891d364db5ab5dc4257978c, type: 3}
    - {fileID: 21300000, guid: 4550f2d6e4ea6294ebf77d4cae55cf6f, type: 3}
    - {fileID: 21300000, guid: ca5fdc538227b6644af6ad84e495e04a, type: 3}
    - {fileID: 21300000, guid: 693550497e15e4b4ba1ec1abcb1b30bd, type: 3}
    - {fileID: 21300000, guid: 49d3b8a13be936a428b1f3dc3b2f5e65, type: 3}
    - {fileID: 21300000, guid: 8278711073361af428b8656dfe940462, type: 3}
    - {fileID: 21300000, guid: 449387c3a12b4d44cbfaa4b8060e167f, type: 3}
    - {fileID: 21300000, guid: 7cf6fefe801f0984da93fcda7e55aa6e, type: 3}
    - {fileID: 21300000, guid: 8217ad2211d0c0b44b65d4884594714c, type: 3}
    - {fileID: 21300000, guid: 9f35fd28fb896e4499b3ef2ea18f2446, type: 3}
    - {fileID: 21300000, guid: 2eaacf1a3cf4f9243b3dd3e00f248166, type: 3}
    - {fileID: 21300000, guid: ced4bcf39bd6e5243ba73a914912d682, type: 3}
    - {fileID: 21300000, guid: 9ff74e29ee9da744197b0e628a1da4ee, type: 3}
    - {fileID: 21300000, guid: 1432afe1759ffd6429d6ffb979a80b71, type: 3}
    - {fileID: 21300000, guid: fca5aa6a0f0588841897d6dee0eeb6ac, type: 3}
    - {fileID: 21300000, guid: 7ff3d87f09c064548b2aad8c6d62acf8, type: 3}
  m_AnimationClipSettings:
    serializedVersion: 2
    m_AdditiveReferencePoseClip: {fileID: 0}
    m_AdditiveReferencePoseTime: 0
    m_StartTime: 0
    m_StopTime: 1.1666666
    m_OrientationOffsetY: 0
    m_Level: 0
    m_CycleOffset: 0
    m_HasAdditiveReferencePose: 0
    m_LoopTime: 1
    m_LoopBlend: 0
    m_LoopBlendOrientation: 0
    m_LoopBlendPositionY: 0
    m_LoopBlendPositionXZ: 0
    m_KeepOriginalOrientation: 0
    m_KeepOriginalPositionY: 1
    m_KeepOriginalPositionXZ: 0
    m_HeightFromFeet: 0
    m_Mirror: 0
  m_EditorCurves: []
  m_EulerEditorCurves: []
  m_HasGenericRootTransform: 0
  m_HasMotionFloatCurves: 0
  m_Events: []
